<?xml version="1.0" standalone="no"?>
<!DOCTYPE svg PUBLIC "-//W3C//DTD SVG 1.1//EN" "http://www.w3.org/Graphics/SVG/1.1/DTD/svg11.dtd">
<svg xmlns="http://www.w3.org/2000/svg">
<metadata>Copyright (C) 2019 by original authors @ fontello.com</metadata>
<defs>
<font id="fontello" horiz-adv-x="1000" >
<font-face font-family="fontello" font-weight="400" font-stretch="normal" units-per-em="1000" ascent="850" descent="-150" />
<missing-glyph horiz-adv-x="1000" />
<glyph glyph-name="bars" unicode="&#xe800;" d="M857 100v-71q0-15-10-25t-26-11h-785q-15 0-25 11t-11 25v71q0 15 11 25t25 11h785q15 0 26-11t10-25z m0 286v-72q0-14-10-25t-26-10h-785q-15 0-25 10t-11 25v72q0 14 11 25t25 10h785q15 0 26-10t10-25z m0 285v-71q0-14-10-25t-26-11h-785q-15 0-25 11t-11 25v71q0 15 11 26t25 10h785q15 0 26-10t10-26z" horiz-adv-x="857.1" />

<glyph glyph-name="check" unicode="&#xe801;" d="M933 534q0-22-16-38l-404-404-76-76q-16-15-38-15t-38 15l-76 76-202 202q-15 16-15 38t15 38l76 76q16 16 38 16t38-16l164-165 366 367q16 16 38 16t38-16l76-76q16-15 16-38z" horiz-adv-x="1000" />

<glyph glyph-name="none" unicode="&#xe802;" d="M0-7z" horiz-adv-x="279" />

<glyph glyph-name="close" unicode="&#xe803;" d="M724 112q0-22-15-38l-76-76q-16-15-38-15t-38 15l-164 165-164-165q-16-15-38-15t-38 15l-76 76q-16 16-16 38t16 38l164 164-164 164q-16 16-16 38t16 38l76 76q16 16 38 16t38-16l164-164 164 164q16 16 38 16t38-16l76-76q15-15 15-38t-15-38l-164-164 164-164q15-15 15-38z" horiz-adv-x="785.7" />

<glyph glyph-name="crosshairs" unicode="&#xe804;" d="M668 279h-61q-14 0-25 10t-11 25v72q0 14 11 25t25 10h61q-18 61-63 106t-105 62v-60q0-15-11-25t-25-11h-71q-15 0-25 11t-11 25v60q-60-17-105-62t-63-106h61q15 0 25-10t11-25v-72q0-14-11-25t-25-10h-61q18-61 63-106t105-62v60q0 15 11 26t25 10h71q15 0 25-10t11-26v-60q60 18 105 62t63 106z m189 107v-72q0-14-10-25t-26-10h-79q-21-90-87-156t-155-86v-80q0-14-11-25t-25-11h-71q-15 0-25 11t-11 25v80q-90 21-155 86t-86 156h-80q-15 0-25 10t-11 25v72q0 14 11 25t25 10h80q20 90 86 156t155 86v80q0 14 11 25t25 11h71q15 0 25-11t11-25v-80q90-21 155-86t87-156h79q15 0 26-10t10-25z" horiz-adv-x="857.1" />

<glyph glyph-name="home" unicode="&#xe805;" d="M786 296v-267q0-15-11-25t-25-11h-214v214h-143v-214h-214q-15 0-25 11t-11 25v267q0 1 0 2t0 2l321 264 321-264q1-1 1-4z m124 39l-34-41q-5-5-12-6h-2q-7 0-12 3l-386 322-386-322q-7-4-13-3-7 1-12 6l-35 41q-4 6-3 13t6 12l401 334q18 15 42 15t43-15l136-113v108q0 8 5 13t13 5h107q8 0 13-5t5-13v-227l122-102q6-4 6-12t-4-13z" horiz-adv-x="928.6" />

<glyph glyph-name="map-marker" unicode="&#xe806;" d="M429 493q0 59-42 101t-101 42-101-42-42-101 42-101 101-42 101 42 42 101z m142 0q0-61-18-100l-203-432q-9-18-27-29t-37-11-38 11-26 29l-204 432q-18 39-18 100 0 118 84 202t202 84 202-84 83-202z" horiz-adv-x="571.4" />

<glyph glyph-name="phone" unicode="&#xe807;" d="M786 158q0-15-6-39t-12-38q-11-28-68-60-52-28-103-28-15 0-30 2t-32 7-26 8-31 11-28 10q-54 20-97 47-72 44-148 120t-120 148q-27 43-46 97-2 5-10 28t-12 31-8 26-7 32-2 29q0 52 29 104 31 57 59 68 14 6 38 12t39 6q8 0 12-2 10-3 30-42 6-11 16-31t20-35 17-30q2-2 10-14t12-20 4-16q0-11-16-27t-35-31-34-30-16-25q0-5 3-13t4-11 8-14 7-10q42-77 97-132t131-97q1 0 10-6t14-8 11-5 13-2q10 0 25 16t30 34 31 35 28 16q7 0 15-4t20-12 14-10q14-8 30-17t36-20 30-17q39-19 42-29 2-4 2-12z" horiz-adv-x="785.7" />

<glyph glyph-name="print" unicode="&#xe808;" d="M214-7h500v143h-500v-143z m0 357h500v214h-89q-22 0-38 16t-16 38v89h-357v-357z m643-36q0 15-10 25t-26 11-25-11-10-25 10-25 25-10 26 10 10 25z m72 0v-232q0-7-6-12t-12-6h-125v-89q0-22-16-38t-38-16h-536q-22 0-37 16t-16 38v89h-125q-7 0-13 6t-5 12v232q0 44 32 76t75 31h36v304q0 22 16 38t37 16h375q23 0 50-12t42-26l85-85q15-16 27-43t11-49v-143h35q45 0 76-31t32-76z" horiz-adv-x="928.6" />

<glyph glyph-name="user" unicode="&#xe809;" d="M786 66q0-67-41-106t-108-39h-488q-67 0-108 39t-41 106q0 30 2 58t8 61 15 60 24 55 34 45 48 30 62 11q5 0 24-12t41-27 60-27 75-12 74 12 61 27 41 27 24 12q34 0 62-11t48-30 34-45 24-55 15-60 8-61 2-58z m-179 498q0-88-63-151t-151-63-152 63-62 151 62 152 152 63 151-63 63-152z" horiz-adv-x="785.7" />

<glyph glyph-name="angle-down" unicode="&#xe80a;" d="M600 439q0-7-6-12l-260-261q-5-5-13-5t-12 5l-260 261q-6 5-6 12t6 13l28 28q5 6 12 6t13-6l219-219 220 219q5 6 13 6t12-6l28-28q6-5 6-13z" horiz-adv-x="642.9" />

<glyph glyph-name="angle-left" unicode="&#xe80b;" d="M350 546q0-7-6-12l-219-220 219-219q6-6 6-13t-6-13l-28-28q-5-5-12-5t-13 5l-260 261q-6 5-6 12t6 13l260 260q5 6 13 6t12-6l28-28q6-5 6-13z" horiz-adv-x="357.1" />

<glyph glyph-name="angle-right" unicode="&#xe80c;" d="M332 314q0-7-5-12l-261-261q-5-5-12-5t-13 5l-28 28q-6 6-6 13t6 13l219 219-219 220q-6 5-6 12t6 13l28 28q5 6 13 6t12-6l261-260q5-5 5-13z" horiz-adv-x="357.1" />

<glyph glyph-name="facebook" unicode="&#xe80d;" d="M535 843v-147h-87q-48 0-65-20t-17-60v-106h164l-22-165h-142v-424h-171v424h-142v165h142v122q0 104 58 161t155 57q82 0 127-7z" horiz-adv-x="571.4" />

<glyph glyph-name="glyph" unicode="&#xe80e;" d="M802 341q0-117-49-207t-138-142-206-51q-83 0-159 32t-131 87-87 131-32 159 32 159 87 131 131 87 159 32q160 0 274-107l-111-107q-65 63-163 63-69 0-127-34t-92-94-34-130 34-130 92-94 127-34q46 0 85 13t64 32 44 43 27 47 12 41h-232v141h386q7-36 7-68z m484 68v-118h-117v-116h-117v116h-117v118h117v116h117v-116h117z" horiz-adv-x="1285.7" />

<glyph glyph-name="linkedin" unicode="&#xe80f;" d="M195 501v-553h-184v553h184z m12 171q0-41-29-68t-75-27h-1q-46 0-74 27t-28 68q0 41 29 68t75 27 74-27 29-68z m650-407v-317h-183v296q0 59-23 92t-71 33q-35 0-58-19t-36-48q-6-17-6-45v-309h-184q1 223 1 361t0 165l-1 27h184v-80h-1q11 18 23 31t31 29 49 24 64 9q95 0 153-63t58-186z" horiz-adv-x="857.1" />

<glyph glyph-name="twitter" unicode="&#xe810;" d="M904 622q-37-54-90-93 0-8 0-23 0-73-21-145t-64-139-103-117-144-82-181-30q-151 0-276 81 19-2 43-2 126 0 224 77-59 1-105 36t-64 89q19-3 34-3 24 0 48 6-63 13-104 62t-41 115v2q38-21 82-23-37 25-59 64t-22 86q0 49 25 91 68-83 164-133t208-55q-5 21-5 41 0 75 53 127t127 53q79 0 132-57 61 12 115 44-21-64-80-100 52 6 104 28z" horiz-adv-x="928.6" />

<glyph glyph-name="xing" unicode="&#xe811;" d="M333 478q-5-10-143-255-15-25-36-25h-134q-12 0-17 9t0 20l141 250q1 0 0 1l-90 156q-7 12 0 20 5 9 17 9h134q22 0 37-26z m450 358q6-9 0-21l-295-521v0l188-344q6-11 0-20-5-9-17-9h-134q-23 0-37 25l-189 348q10 18 296 525 14 25 36 25h135q12 0 17-8z" horiz-adv-x="785.7" />

<glyph glyph-name="youtube-play" unicode="&#xe812;" d="M714 350q0 21-16 30l-286 179q-17 11-36 1-19-10-19-31v-358q0-21 19-31 9-4 17-4 11 0 19 5l286 179q16 9 16 30z m286 0q0-54-1-84t-4-76-13-82q-9-41-38-69t-70-32q-123-14-374-14t-374 14q-40 4-70 32t-39 69q-7 36-12 82t-4 76-1 84 1 84 4 76 13 82q9 41 38 69t70 32q123 14 374 14t374-14q40-4 70-32t39-69q8-36 12-82t4-76 1-84z" horiz-adv-x="1000" />

<glyph glyph-name="play" unicode="&#xe813;" d="M772 333l-741-412q-13-7-22-2t-9 20v822q0 14 9 20t22-2l741-412q13-7 13-17t-13-17z" horiz-adv-x="785.7" />

<glyph glyph-name="newspaper" unicode="&#xe814;" d="M571 564h-214v-214h214v214z m72-357v-71h-357v71h357z m0 429v-357h-357v357h357z m357-429v-71h-286v71h286z m0 143v-71h-286v71h286z m0 143v-72h-286v72h286z m0 143v-72h-286v72h286z m-857-536v536h-72v-536q0-14 11-25t25-11 25 11 11 25z m928 0v607h-857v-607q0-18-6-36h828q14 0 25 11t10 25z m72 679v-679q0-45-31-76t-76-31h-929q-44 0-76 31t-31 76v607h143v72h1000z" horiz-adv-x="1142.9" />

<glyph glyph-name="lightbulb" unicode="&#xe815;" d="M411 529q0-8-6-13t-12-5-13 5-5 13q0 25-30 39t-59 14q-8 0-13 5t-5 13 5 13 13 5q28 0 55-9t49-30 21-50z m89 0q0 40-19 74t-50 57-69 35-76 12-76-12-69-35-50-57-20-74q0-57 38-101 6-6 17-18t17-19q72-85 79-166h127q8 81 79 166 6 6 17 19t17 18q38 44 38 101z m71 0q0-87-57-150-25-27-42-49t-33-53-19-60q26-15 26-46 0-20-14-35 14-15 14-36 0-29-25-45 8-13 8-26 0-26-18-40t-43-14q-11-25-34-39t-48-15-49 15-33 39q-26 0-44 14t-17 40q0 13 7 26-25 16-25 45 0 21 14 36-14 15-14 35 0 31 26 46-2 28-19 60t-33 53-41 49q-58 63-58 150 0 55 25 103t65 79 92 49 104 19 104-19 91-49 66-79 24-103z" horiz-adv-x="571.4" />

<glyph glyph-name="spin5" unicode="&#xe816;" d="M462 850c-6 0-11-5-11-11l0-183 0 0c0-6 5-11 11-11l69 0c1 0 1 0 1 0 7 0 12 5 12 11l0 183 0 0c0 6-5 11-12 11l-69 0c0 0 0 0-1 0z m250-47c-4 1-8-2-10-5l-91-158 0 0c-4-6-2-13 4-16l60-35c0 0 0 0 0 0 6-3 13-1 16 4l91 158c3 6 2 13-4 16l-61 35c-1 1-3 1-5 1z m-428-2c-2 0-4-1-6-2l-61-35c-5-3-7-10-4-16l91-157c0 0 0 0 0 0 3-6 10-8 16-5l61 35c5 4 7 11 4 16l-91 157c0 1 0 1 0 1-2 4-6 6-10 6z m620-163c-2 0-4 0-6-1l-157-91c0 0 0 0 0 0-6-3-8-10-5-16l35-61c4-5 11-7 16-4l157 91c1 0 1 0 1 0 6 3 7 10 4 16l-35 61c-2 3-6 5-10 5z m-810-4c-5 0-9-2-11-6l-35-61c-3-5-1-12 4-15l158-92 0 0c6-3 13-1 16 5l35 60c0 0 0 0 0 0 3 6 1 13-4 16l-158 91c-2 1-4 2-5 2z m712-235l0 0c-6 0-11-5-11-11l0-69c0-1 0-1 0-1 0-7 5-12 11-12l183 0 0 0c6 0 11 5 11 12l0 69c0 0 0 0 0 1 0 6-5 11-11 11l-183 0z m-794-5l0 0c-7 0-12-5-12-12l0-69c0 0 0 0 0-1 0-6 5-11 12-11l182 0 0 0c6 0 11 5 11 11l0 69c0 1 0 1 0 1 0 7-5 12-11 12l-182 0z m772-153c-4 0-8-2-10-6l-34-60c-1 0-1 0-1 0-3-6-1-13 4-16l158-91c6-3 13-2 16 4l35 61c3 5 1 12-4 15l-158 91 0 0c-2 1-4 2-6 2z m-566-5c-1 0-3 0-5-1l-157-91c0 0-1 0-1 0-5-3-7-11-4-16l35-61c3-5 10-7 16-4l157 91c0 0 0 0 0 0 6 3 8 10 5 16l-35 61c-3 3-7 5-11 5z m468-121c-2 0-4 0-6-1l-61-35c-5-4-7-11-4-16l91-157c0-1 0-1 0-1 3-6 11-7 16-4l61 35c5 3 7 10 4 16l-91 157c0 0 0 0 0 0-2 4-6 6-10 6z m-367-3c-4 1-8-2-10-5l-91-158c-3-6-1-13 4-16l61-35c5-3 12-1 15 4l92 158 0 0c3 6 1 13-5 16l-60 34c0 1 0 1 0 1-2 1-4 1-6 1z m149-57c-7 0-12-5-12-11l0-183 0 0c0-6 5-11 12-11l69 0c0 0 0 0 1 0 6 0 11 5 11 11l0 183 0 0c0 6-5 11-11 11l-69 0c-1 0-1 0-1 0z" horiz-adv-x="1000" />

<glyph glyph-name="ok-circled" unicode="&#xe817;" d="M717 440q0 16-11 26l-50 50q-11 11-25 11t-26-11l-227-227-126 126q-11 11-25 11t-26-11l-50-50q-10-10-10-26 0-15 10-25l202-202q10-10 25-10 15 0 25 10l303 303q11 10 11 25z m140-90q0-117-57-215t-156-156-215-58-216 58-155 156-58 215 58 215 155 156 216 58 215-58 156-156 57-215z" horiz-adv-x="857.1" />

<glyph glyph-name="pause" unicode="&#xe818;" d="M857 743v-786q0-14-10-25t-26-11h-285q-15 0-25 11t-11 25v786q0 14 11 25t25 11h285q15 0 26-11t10-25z m-500 0v-786q0-14-10-25t-26-11h-285q-15 0-25 11t-11 25v786q0 14 11 25t25 11h285q15 0 26-11t10-25z" horiz-adv-x="857.1" />

<glyph glyph-name="right-circled" unicode="&#xe819;" d="M717 350q0 15-10 25l-51 51-202 202q-10 10-25 10t-25-10l-51-51q-10-10-10-25t10-25l106-106h-280q-15 0-26-10t-10-25v-72q0-14 10-25t26-10h280l-106-106q-10-10-10-25t10-25l51-51q10-10 25-10t25 10l202 202 51 51q10 10 10 25z m140 0q0-117-57-215t-156-156-215-58-216 58-155 156-58 215 58 215 155 156 216 58 215-58 156-156 57-215z" horiz-adv-x="857.1" />

<glyph glyph-name="right-big" unicode="&#xe81a;" d="M821 314q0-30-20-50l-363-364q-22-20-51-20-29 0-50 20l-42 42q-22 21-22 51t22 51l163 163h-393q-29 0-47 21t-18 51v71q0 30 18 51t47 20h393l-163 164q-22 21-22 51t22 50l42 42q21 21 50 21 29 0 51-21l363-363q20-20 20-51z" horiz-adv-x="857.1" />

<glyph glyph-name="file-pdf" unicode="&#xe81b;" d="M819 638q16-16 27-42t11-50v-642q0-23-15-38t-38-16h-750q-23 0-38 16t-16 38v892q0 23 16 38t38 16h500q22 0 49-11t42-27z m-248 136v-210h210q-5 16-12 23l-175 175q-6 7-23 12z m215-853v572h-232q-23 0-38 15t-16 38v233h-429v-858h715z m-287 331q18-14 47-31 33 4 65 4 82 0 99-27 9-13 1-29 0-1-1-1l-1-2v0q-3-21-39-21-27 0-65 11t-72 29q-123-13-219-46-85-146-135-146-8 0-15 4l-14 6q0 1-3 3-6 6-4 20 5 23 32 51t73 54q8 5 13-3 1-1 1-2 29 47 60 110 38 76 58 146-13 46-17 89t4 71q6 22 23 22h12q13 0 20-8 10-12 5-38-1-3-2-4 0-2 0-5v-17q-1-68-8-107 31-91 82-133z m-322-229q30 13 77 88-29-22-49-47t-28-41z m223 513q-9-23-2-73 1 4 4 24 0 2 4 24 1 3 3 5-1 0-1 1t0 1-1 1q0 12-7 20 0-1 0-1v-2z m-70-368q76 30 159 45-1 0-7 5t-9 8q-43 37-71 98-15-48-47-110-16-31-25-46z m361 8q-14 14-78 14 42-16 69-16 8 0 10 1 0 0-1 1z" horiz-adv-x="857.1" />

<glyph glyph-name="mail" unicode="&#xe81c;" d="M929 11v428q-18-20-39-37-149-114-238-188-28-24-46-38t-48-27-57-13h-2q-26 0-57 13t-48 27-46 38q-88 74-238 188-21 17-39 37v-428q0-8 6-13t12-5h822q7 0 12 5t6 13z m0 586v14t-1 7-1 7-3 5-5 4-8 2h-822q-7 0-12-6t-6-12q0-94 82-159 108-85 224-177 4-2 20-16t25-21 25-18 28-15 24-5h2q11 0 24 5t28 15 25 18 25 21 20 16q116 92 224 177 30 24 56 65t26 73z m71 21v-607q0-37-26-63t-63-27h-822q-36 0-63 27t-26 63v607q0 37 26 63t63 26h822q37 0 63-26t26-63z" horiz-adv-x="1000" />

<glyph glyph-name="star" unicode="&#xe81d;" d="M929 489q0-12-15-27l-203-197 48-279q1-4 1-12 0-11-6-19t-17-9q-10 0-22 7l-251 132-250-132q-13-7-23-7-11 0-17 9t-6 19q0 4 1 12l48 279-203 197q-14 15-14 27 0 21 31 26l280 40 126 254q11 23 27 23t28-23l125-254 280-40q32-5 32-26z" horiz-adv-x="928.6" />

<glyph glyph-name="star-empty" unicode="&#xe81e;" d="M634 290l171 165-235 35-106 213-105-213-236-35 171-165-41-235 211 111 211-111z m295 199q0-12-15-27l-203-197 48-279q1-4 1-12 0-28-23-28-10 0-22 7l-251 132-250-132q-13-7-23-7-11 0-17 9t-6 19q0 4 1 12l48 279-203 197q-14 15-14 27 0 21 31 26l280 40 126 254q11 23 27 23t28-23l125-254 280-40q32-5 32-26z" horiz-adv-x="928.6" />

<glyph glyph-name="forward" unicode="&#xe81f;" d="M1000 493q0-15-11-25l-285-286q-11-11-25-11t-26 11-10 25v143h-125q-55 0-98-3t-86-12-74-24-59-39-45-56-27-77-10-101q0-31 3-69 0-4 2-13t1-15q0-8-5-14t-13-6q-9 0-15 10-4 5-8 12t-7 17-6 13q-71 159-71 252 0 111 30 186 90 225 488 225h125v143q0 14 10 25t26 10 25-10l285-286q11-11 11-25z" horiz-adv-x="1000" />

<glyph glyph-name="edit" unicode="&#xe820;" d="M496 189l64 65-85 85-64-65v-31h53v-54h32z m245 402q-9 9-18 0l-196-196q-9-9 0-18t18 0l196 196q9 9 0 18z m45-331v-106q0-67-47-114t-114-47h-464q-67 0-114 47t-47 114v464q0 66 47 113t114 48h464q35 0 65-14 9-4 10-13 2-10-5-16l-27-28q-8-8-18-4-13 3-25 3h-464q-37 0-63-26t-27-63v-464q0-37 27-63t63-27h464q37 0 63 27t26 63v70q0 7 5 12l36 36q8 8 20 4t11-16z m-54 411l161-160-375-375h-161v160z m248-73l-51-52-161 161 51 51q16 16 38 16t38-16l85-84q16-16 16-38t-16-38z" horiz-adv-x="1000" />

<glyph glyph-name="camera" unicode="&#xe821;" d="M536 475q66 0 113-47t47-114-47-113-113-47-114 47-47 113 47 114 114 47z m393 232q59 0 101-42t41-101v-500q0-59-41-101t-101-42h-786q-59 0-101 42t-42 101v500q0 59 42 101t101 42h125l28 76q11 27 39 47t58 20h286q29 0 57-20t39-47l29-76h125z m-393-643q103 0 176 74t74 176-74 177-176 73-177-73-73-177 73-176 177-74z" horiz-adv-x="1071.4" />

<glyph glyph-name="info-circled" unicode="&#xe822;" d="M571 82v89q0 8-5 13t-12 5h-54v286q0 8-5 13t-13 5h-178q-8 0-13-5t-5-13v-89q0-8 5-13t13-5h53v-179h-53q-8 0-13-5t-5-13v-89q0-8 5-13t13-5h250q7 0 12 5t5 13z m-71 500v89q0 8-5 13t-13 5h-107q-8 0-13-5t-5-13v-89q0-8 5-13t13-5h107q8 0 13 5t5 13z m357-232q0-117-57-215t-156-156-215-58-216 58-155 156-58 215 58 215 155 156 216 58 215-58 156-156 57-215z" horiz-adv-x="857.1" />

<glyph glyph-name="info" unicode="&#xe823;" d="M357 100v-71q0-15-10-25t-26-11h-285q-15 0-25 11t-11 25v71q0 15 11 25t25 11h35v214h-35q-15 0-25 11t-11 25v71q0 15 11 25t25 11h214q15 0 25-11t11-25v-321h35q15 0 26-11t10-25z m-71 643v-107q0-15-11-25t-25-11h-143q-14 0-25 11t-11 25v107q0 14 11 25t25 11h143q15 0 25-11t11-25z" horiz-adv-x="357.1" />

<glyph glyph-name="attention-alt" unicode="&#xe824;" d="M286 154v-125q0-15-11-25t-25-11h-143q-14 0-25 11t-11 25v125q0 14 11 25t25 10h143q15 0 25-10t11-25z m16 589l-15-429q-1-14-12-25t-25-10h-143q-14 0-25 10t-12 25l-15 429q-1 14 9 25t25 11h179q14 0 25-11t9-25z" horiz-adv-x="357.1" />

<glyph glyph-name="attention" unicode="&#xe825;" d="M571 83v106q0 8-5 13t-12 5h-108q-7 0-12-5t-5-13v-106q0-8 5-13t12-6h108q7 0 12 6t5 13z m-1 208l10 257q0 6-5 10-7 6-14 6h-122q-7 0-14-6-5-4-5-12l9-255q0-5 6-9t13-3h103q8 0 13 3t6 9z m-7 522l428-786q20-35-1-70-10-17-26-26t-35-10h-858q-18 0-35 10t-26 26q-21 35-1 70l429 786q9 17 26 27t36 10 36-10 27-27z" horiz-adv-x="1000" />

<glyph glyph-name="ok-squared" unicode="&#xe826;" d="M382 125l343 343q10 10 10 25t-10 25l-57 57q-11 10-25 10t-25-10l-261-261-118 118q-10 11-25 11t-25-11l-57-57q-10-11-10-25t10-25l200-200q11-11 25-11t25 11z m475 493v-536q0-66-47-113t-114-48h-535q-67 0-114 48t-47 113v536q0 66 47 113t114 48h535q67 0 114-48t47-113z" horiz-adv-x="857.1" />

<glyph glyph-name="left-big" unicode="&#xe827;" d="M857 350v-71q0-30-18-51t-47-21h-393l164-164q21-20 21-50t-21-50l-42-43q-21-20-51-20-29 0-50 20l-364 364q-20 21-20 50 0 29 20 51l364 363q21 21 50 21 29 0 51-21l42-41q21-22 21-51t-21-51l-164-164h393q29 0 47-20t18-51z" horiz-adv-x="857.1" />

<glyph glyph-name="lock" unicode="&#xe828;" d="M179 421h285v108q0 59-42 101t-101 41-101-41-41-101v-108z m464-53v-322q0-22-16-37t-38-16h-535q-23 0-38 16t-16 37v322q0 22 16 38t38 15h17v108q0 102 74 176t176 74 177-74 73-176v-108h18q23 0 38-15t16-38z" horiz-adv-x="642.9" />

<glyph glyph-name="volume-up" unicode="&#xe829;" d="M429 654v-608q0-14-11-25t-25-10-25 10l-186 186h-146q-15 0-25 11t-11 25v214q0 15 11 25t25 11h146l186 186q10 10 25 10t25-10 11-25z m214-304q0-42-24-79t-63-52q-5-3-14-3-14 0-25 10t-10 26q0 12 6 20t17 14 19 12 16 21 6 31-6 32-16 20-19 13-17 13-6 20q0 15 10 26t25 10q9 0 14-3 39-15 63-52t24-79z m143 0q0-85-48-158t-125-105q-7-3-14-3-15 0-26 11t-10 25q0 22 21 33 32 16 43 25 41 30 64 75t23 97-23 97-64 75q-11 9-43 25-21 11-21 33 0 14 10 25t25 11q8 0 15-3 78-33 125-105t48-158z m143 0q0-128-71-236t-189-158q-7-3-14-3-15 0-25 11t-11 25q0 20 22 33 4 2 12 6t13 6q25 14 46 28 68 51 107 127t38 161-38 161-107 127q-21 15-46 28-4 3-13 6t-12 6q-22 13-22 33 0 15 11 25t25 11q7 0 14-3 118-51 189-158t71-236z" horiz-adv-x="928.6" />

<glyph glyph-name="angle-up" unicode="&#xe82a;" d="M600 189q0-7-6-12l-28-28q-5-6-12-6t-13 6l-220 219-219-219q-5-6-13-6t-12 6l-28 28q-6 5-6 12t6 13l260 260q5 6 12 6t13-6l260-260q6-5 6-13z" horiz-adv-x="642.9" />

<glyph glyph-name="rocket" unicode="&#xe82b;" d="M804 600q0 22-16 38t-38 16-38-16-16-38 16-38 38-16 38 16 16 38z m125 161q0-139-43-240t-141-202q-45-44-109-98l-11-211q-1-9-9-15l-214-125q-4-2-9-2-7 0-13 5l-36 36q-7 7-4 17l47 155-156 156-154-47q-2-1-6-1-7 0-12 5l-36 36q-10 11-3 22l125 214q6 8 15 9l211 11q54 64 98 109 105 104 200 144t241 40q7 0 13-6t6-12z" horiz-adv-x="928.6" />

<glyph glyph-name="users" unicode="&#xe82c;" d="M331 350q-90-3-148-71h-75q-45 0-77 22t-31 66q0 197 69 197 4 0 25-11t54-24 66-12q38 0 75 13-3-21-3-37 0-78 45-143z m598-356q0-66-41-105t-108-39h-488q-68 0-108 39t-41 105q0 30 2 58t8 61 14 61 24 54 35 45 48 30 62 11q6 0 24-12t41-26 59-27 76-12 75 12 60 27 41 26 24 12q34 0 62-11t47-30 35-45 24-54 15-61 8-61 2-58z m-572 713q0-59-42-101t-101-42-101 42-42 101 42 101 101 42 101-42 42-101z m393-214q0-89-63-152t-151-62-152 62-63 152 63 151 152 63 151-63 63-151z m321-126q0-43-31-66t-77-22h-75q-57 68-147 71 45 65 45 143 0 16-3 37 37-13 74-13 33 0 67 12t54 24 24 11q69 0 69-197z m-71 340q0-59-42-101t-101-42-101 42-42 101 42 101 101 42 101-42 42-101z" horiz-adv-x="1071.4" />

<glyph glyph-name="clock" unicode="&#xe82d;" d="M500 546v-250q0-7-5-12t-13-5h-178q-8 0-13 5t-5 12v36q0 8 5 13t13 5h125v196q0 8 5 13t12 5h36q8 0 13-5t5-13z m232-196q0 83-41 152t-110 111-152 41-153-41-110-111-41-152 41-152 110-111 153-41 152 41 110 111 41 152z m125 0q0-117-57-215t-156-156-215-58-216 58-155 156-58 215 58 215 155 156 216 58 215-58 156-156 57-215z" horiz-adv-x="857.1" />

<glyph glyph-name="chart-bar" unicode="&#xe82e;" d="M357 350v-286h-143v286h143z m214 286v-572h-142v572h142z m572-643v-72h-1143v858h71v-786h1072z m-357 500v-429h-143v429h143z m214 214v-643h-143v643h143z" horiz-adv-x="1142.9" />

<glyph glyph-name="smile" unicode="&#xe82f;" d="M633 250q-21-67-77-109t-127-41-128 41-77 109q-4 14 3 27t21 18q14 4 27-2t17-22q14-44 52-72t85-28 84 28 52 72q4 15 18 22t27 2 21-18 2-27z m-276 243q0-30-21-51t-50-21-51 21-21 51 21 50 51 21 50-21 21-50z m286 0q0-30-21-51t-51-21-50 21-21 51 21 50 50 21 51-21 21-50z m143-143q0 73-29 139t-76 114-114 76-138 28-139-28-114-76-76-114-29-139 29-139 76-113 114-77 139-28 138 28 114 77 76 113 29 139z m71 0q0-117-57-215t-156-156-215-58-216 58-155 156-58 215 58 215 155 156 216 58 215-58 156-156 57-215z" horiz-adv-x="857.1" />

<glyph glyph-name="heart-empty" unicode="&#xe830;" d="M929 517q0 46-12 80t-31 55-46 33-52 18-55 4-62-14-62-36-48-40-34-34q-10-13-27-13t-27 13q-14 15-34 34t-48 40-62 36-62 14-55-4-52-18-46-33-31-55-12-80q0-93 105-198l324-312 324 312q105 105 105 198z m71 0q0-123-128-251l-347-335q-10-10-25-10t-25 10l-348 336q-5 5-15 15t-31 37-38 54-30 67-13 77q0 123 71 192t196 70q34 0 70-12t67-33 54-38 42-38q20 20 42 38t54 38 67 33 70 12q125 0 196-70t71-192z" horiz-adv-x="1000" />

<glyph glyph-name="chart-line" unicode="&#xe831;" d="M1143-7v-72h-1143v858h71v-786h1072z m-72 696v-242q0-12-10-17t-20 4l-68 68-353-353q-6-6-13-6t-13 6l-130 130-232-233-107 108 327 326q5 6 12 6t13-6l130-130 259 259-67 68q-9 8-5 19t17 11h243q7 0 12-5t5-13z" horiz-adv-x="1142.9" />

<glyph glyph-name="cog-alt" unicode="&#xe832;" d="M500 350q0 59-42 101t-101 42-101-42-42-101 42-101 101-42 101 42 42 101z m429-286q0 29-22 51t-50 21-50-21-21-51q0-29 21-50t50-21 51 21 21 50z m0 572q0 29-22 50t-50 21-50-21-21-50q0-30 21-51t50-21 51 21 21 51z m-215-235v-103q0-6-4-11t-8-6l-87-14q-6-19-18-42 19-27 50-64 4-6 4-11 0-7-4-11-12-17-46-50t-43-33q-7 0-12 4l-64 50q-21-11-43-17-6-60-13-87-4-13-17-13h-104q-6 0-11 4t-5 10l-13 85q-19 6-42 18l-66-50q-4-4-11-4-6 0-12 4-80 75-80 90 0 5 4 10 5 8 23 30t26 34q-13 24-20 46l-85 13q-5 1-9 5t-4 11v104q0 5 4 10t9 6l86 14q7 19 18 42-19 27-50 64-4 6-4 11 0 7 4 12 12 16 46 49t44 33q6 0 12-4l64-50q19 10 43 18 6 60 13 86 3 13 16 13h104q6 0 11-4t6-10l13-85q19-6 42-17l65 49q5 4 12 4 6 0 11-4 81-75 81-90 0-4-4-10-7-9-24-30t-25-34q13-27 19-46l85-12q6-2 9-6t4-11z m357-298v-78q0-9-83-17-6-15-16-29 28-63 28-77 0-2-2-4-68-40-69-40-5 0-26 27t-29 37q-11-1-17-1t-17 1q-7-11-29-37t-25-27q-1 0-69 40-3 2-3 4 0 14 29 77-10 14-17 29-83 8-83 17v78q0 9 83 18 7 16 17 29-29 63-29 77 0 2 3 4 2 1 19 11t33 19 17 9q4 0 25-26t29-38q12 1 17 1t17-1q28 40 51 63l4 1q2 0 69-39 2-2 2-4 0-14-28-77 9-13 16-29 83-9 83-18z m0 572v-78q0-9-83-18-6-15-16-29 28-63 28-77 0-2-2-4-68-39-69-39-5 0-26 26t-29 38q-11-1-17-1t-17 1q-7-12-29-38t-25-26q-1 0-69 39-3 2-3 4 0 14 29 77-10 14-17 29-83 9-83 18v78q0 9 83 17 7 16 17 29-29 63-29 77 0 2 3 4 2 1 19 11t33 19 17 9q4 0 25-26t29-37q12 1 17 1t17-1q28 39 51 62l4 1q2 0 69-39 2-2 2-4 0-14-28-77 9-13 16-29 83-8 83-17z" horiz-adv-x="1071.4" />

<glyph glyph-name="download" unicode="&#xe833;" d="M714 100q0 15-10 25t-25 11-25-11-11-25 11-25 25-11 25 11 10 25z m143 0q0 15-10 25t-26 11-25-11-10-25 10-25 25-11 26 11 10 25z m72 125v-179q0-22-16-37t-38-16h-821q-23 0-38 16t-16 37v179q0 22 16 38t38 16h259l75-76q33-32 76-32t76 32l76 76h259q22 0 38-16t16-38z m-182 318q10-23-8-39l-250-250q-10-11-25-11t-25 11l-250 250q-17 16-8 39 10 21 33 21h143v250q0 15 11 25t25 11h143q14 0 25-11t10-25v-250h143q24 0 33-21z" horiz-adv-x="928.6" />

<glyph glyph-name="comment" unicode="&#xe834;" d="M1000 350q0-97-67-179t-182-130-251-48q-39 0-81 4-110-97-257-135-27-8-63-12-10-1-17 5t-10 16v1q-2 2 0 6t1 6 2 5l4 5t4 5 4 5q4 5 17 19t20 22 17 22 18 28 15 33 15 42q-88 50-138 123t-51 157q0 73 40 139t106 114 160 76 194 28q136 0 251-48t182-130 67-179z" horiz-adv-x="1000" />

<glyph glyph-name="comment-empty" unicode="&#xe835;" d="M500 636q-114 0-213-39t-157-105-59-142q0-62 40-119t113-98l48-28-15-53q-13-51-39-97 85 36 154 96l24 21 32-3q38-5 72-5 114 0 213 39t157 105 59 142-59 142-157 105-213 39z m500-286q0-97-67-179t-182-130-251-48q-39 0-81 4-110-97-257-135-27-8-63-12h-3q-8 0-15 6t-9 15v1q-2 2 0 6t1 6 2 5l4 5t4 5 4 5q4 5 17 19t20 22 17 22 18 28 15 33 15 42q-88 50-138 123t-51 157q0 97 67 179t182 130 251 48 251-48 182-130 67-179z" horiz-adv-x="1000" />

<glyph glyph-name="whatsapp" unicode="&#xe836;" d="M550 307q7 0 54-25t50-30q1-2 1-8 0-18-9-42-9-22-40-37t-57-15q-32 0-106 35-55 25-95 66t-82 103q-41 60-40 108v5q2 50 41 88 14 12 29 12 4 0 10-1t11-1q11 0 15-3t8-16q5-11 19-49t14-41q0-12-19-33t-20-26q0-3 3-8 19-41 57-76 31-30 84-57 7-4 13-4 8 0 30 27t29 28z m-114-296q71 0 136 28t112 74 75 112 28 136-28 136-75 112-112 75-136 28-135-28-112-75-75-112-28-136q0-113 67-205l-44-130 135 43q88-58 192-58z m0 771q86 0 164-34t134-89 90-135 33-163-33-163-90-134-134-90-164-34q-108 0-203 53l-233-75 76 226q-60 99-60 217 0 86 33 163t90 135 134 89 163 34z" horiz-adv-x="857.1" />

<glyph glyph-name="angle-double-left" unicode="&#xe837;" d="M350 82q0-7-6-13l-28-28q-5-5-12-5t-13 5l-260 261q-6 5-6 12t6 13l260 260q5 6 13 6t12-6l28-28q6-5 6-13t-6-12l-219-220 219-219q6-6 6-13z m214 0q0-7-5-13l-28-28q-6-5-13-5t-13 5l-260 261q-6 5-6 12t6 13l260 260q6 6 13 6t13-6l28-28q5-5 5-13t-5-12l-220-220 220-219q5-6 5-13z" horiz-adv-x="571.4" />

<glyph glyph-name="angle-double-right" unicode="&#xe838;" d="M332 314q0-7-5-12l-261-261q-5-5-12-5t-13 5l-28 28q-6 6-6 13t6 13l219 219-219 220q-6 5-6 12t6 13l28 28q5 6 13 6t12-6l261-260q5-5 5-13z m214 0q0-7-5-12l-260-261q-6-5-13-5t-13 5l-28 28q-5 6-5 13t5 13l219 219-219 220q-5 5-5 12t5 13l28 28q6 6 13 6t13-6l260-260q5-5 5-13z" horiz-adv-x="571.4" />

<glyph glyph-name="mobile" unicode="&#xe839;" d="M259 64q0 19-13 32t-32 13-31-13-13-32 13-31 31-13 32 13 13 31z m116 90v392q0 8-5 13t-13 5h-286q-7 0-12-5t-5-13v-392q0-8 5-13t12-5h286q7 0 13 5t5 13z m-107 473q0 9-9 9h-89q-9 0-9-9t9-9h89q9 0 9 9z m161 9v-572q0-29-22-50t-50-21h-286q-29 0-50 21t-21 50v572q0 29 21 50t50 21h286q29 0 50-21t22-50z" horiz-adv-x="428.6" />

<glyph glyph-name="list-bullet" unicode="&#xe83a;" d="M214 64q0-44-31-76t-76-31-76 31-31 76 31 76 76 31 76-31 31-76z m0 286q0-45-31-76t-76-31-76 31-31 76 31 76 76 31 76-31 31-76z m786-232v-107q0-7-5-13t-13-5h-678q-8 0-13 5t-5 13v107q0 7 5 12t13 6h678q7 0 13-6t5-12z m-786 518q0-45-31-76t-76-31-76 31-31 76 31 76 76 31 76-31 31-76z m786-232v-108q0-7-5-12t-13-5h-678q-8 0-13 5t-5 12v108q0 7 5 12t13 5h678q7 0 13-5t5-12z m0 285v-107q0-7-5-12t-13-6h-678q-8 0-13 6t-5 12v107q0 8 5 13t13 5h678q7 0 13-5t5-13z" horiz-adv-x="1000" />

<glyph glyph-name="cab" unicode="&#xe83b;" d="M268 243q0 37-26 63t-63 26-63-26-27-63 27-63 63-26 63 26 26 63z m20 178h567l-50 200q-1 4-8 9t-11 6h-429q-5 0-12-6t-7-9z m766-178q0 37-27 63t-63 26-63-26-26-63 26-63 63-26 63 26 27 63z m89 53v-214q0-8-5-13t-13-5h-54v-71q0-45-31-76t-76-31-76 31-31 76v71h-571v-71q0-45-31-76t-76-31-76 31-32 76v71h-53q-8 0-13 5t-5 13v214q0 52 37 89t88 36h16l58 234q13 53 58 88t100 36h429q54 0 100-36t58-88l58-234h16q52 0 88-36t37-89z" horiz-adv-x="1142.9" />

<glyph glyph-name="bus" unicode="&#xe83c;" d="M214 171q0 30-21 51t-50 21-51-21-21-51 21-50 51-21 50 21 21 50z m572 0q0 30-21 51t-51 21-50-21-21-51 21-50 50-21 51 21 21 50z m-26 221l-40 215q-3 13-13 21t-22 8h-513q-12 0-22-8t-13-21l-40-215q-3-16 8-29t27-13h593q17 0 27 13t8 29z m-126 342q0 11-8 19t-19 8h-357q-11 0-19-8t-8-19 8-19 19-8h357q11 0 19 8t8 19z m223-405v-336h-71v-72q0-29-21-50t-51-21-50 21-21 50v72h-429v-72q0-29-21-50t-50-21-51 21-21 50v72h-71v336q0 63 14 125l57 253q6 44 55 77t128 49 175 17 174-17 128-49 55-77l58-253q13-57 13-125z" horiz-adv-x="857.1" />

<glyph glyph-name="bicycle" unicode="&#xe83d;" d="M425 207h-175q-22 0-32 20t4 37l105 140q-37 17-77 17-74 0-126-52t-53-126 53-126 126-53q64 0 113 41t62 102z m-104 72h104q-10 47-42 82z m268 0l161 214h-268l-55-74q59-57 70-140h92z m625-36q0 74-52 126t-126 52q-34 0-68-13l97-145q9-13 6-27t-15-23q-9-6-20-6-20 0-30 16l-97 145q-52-53-52-125 0-74 53-126t126-53 126 53 52 126z m72 0q0-103-74-177t-176-73-177 73-73 177q0 54 22 102t61 84l-36 54-197-261q-10-15-29-15h-110q-13-91-83-153t-164-61q-103 0-177 73t-73 177 73 177 177 73q64 0 120-31l76 102h-125q-14 0-25 11t-10 25 10 25 25 11h215v-72h243l-48 72h-124q-14 0-25 10t-11 25 11 26 25 10h143q18 0 30-15l149-224q50 25 107 25 103 0 176-73t74-177z" horiz-adv-x="1285.7" />

<glyph glyph-name="male" unicode="&#xe83e;" d="M571 457v-232q0-22-15-38t-38-16-38 16-16 38v196h-35v-509q0-25-19-44t-44-18-44 18-18 44v259h-36v-259q0-25-19-44t-44-18-44 18-18 44v509h-36v-196q0-22-15-38t-38-16-38 16-16 38v232q0 45 31 76t76 31h357q45 0 76-31t31-76z m-160 250q0-52-37-88t-88-37-89 37-36 88 36 89 89 36 88-36 37-89z" horiz-adv-x="571.4" />

<glyph glyph-name="award" unicode="&#xe83f;" d="M256 357q-42 91-42 207h-143v-53q0-44 53-91t132-63z m601 154v53h-143q0-116-41-207 79 16 131 63t53 91z m72 71v-71q0-40-24-80t-62-73-97-54-120-25q-23-30-53-53-21-19-29-40t-8-50q0-30 17-51t54-21q42 0 75-25t32-64v-36q0-8-5-13t-13-5h-464q-8 0-13 5t-5 13v36q0 39 33 64t74 25q38 0 55 21t17 51q0 28-8 50t-29 40q-30 23-53 53-64 3-121 25t-96 54-63 73-23 80v71q0 23 16 38t38 16h160v53q0 37 27 63t63 27h321q37 0 63-27t26-63v-53h161q22 0 38-16t16-38z" horiz-adv-x="928.6" />

<glyph glyph-name="megaphone" unicode="&#xe840;" d="M929 493q29 0 50-21t21-51-21-50-50-21v-214q0-29-22-50t-50-22q-233 194-453 212-32-10-51-36t-17-57 22-51q-11-19-13-37t4-32 19-31 26-28 35-28q-17-32-63-46t-94-7-73 31q-4 13-17 49t-18 53-12 50-9 56 2 55 12 62h-68q-36 0-63 26t-26 63v107q0 37 26 63t63 26h268q243 0 500 215 29 0 50-22t22-50v-214z m-72-337v532q-220-168-428-191v-151q210-23 428-190z" horiz-adv-x="1000" />

<glyph glyph-name="trash-empty" unicode="&#xe841;" d="M286 439v-321q0-8-5-13t-13-5h-36q-8 0-13 5t-5 13v321q0 8 5 13t13 5h36q8 0 13-5t5-13z m143 0v-321q0-8-5-13t-13-5h-36q-8 0-13 5t-5 13v321q0 8 5 13t13 5h36q8 0 13-5t5-13z m142 0v-321q0-8-5-13t-12-5h-36q-8 0-13 5t-5 13v321q0 8 5 13t13 5h36q7 0 12-5t5-13z m72-404v529h-500v-529q0-12 4-22t8-15 6-5h464q2 0 6 5t8 15 4 22z m-375 601h250l-27 65q-4 5-9 6h-177q-6-1-10-6z m518-18v-36q0-8-5-13t-13-5h-54v-529q0-46-26-80t-63-34h-464q-37 0-63 33t-27 79v531h-53q-8 0-13 5t-5 13v36q0 8 5 13t13 5h172l39 93q9 21 31 35t44 15h178q23 0 44-15t30-35l39-93h173q8 0 13-5t5-13z" horiz-adv-x="785.7" />

<glyph glyph-name="picture" unicode="&#xe842;" d="M357 529q0-45-31-76t-76-32-76 32-31 76 31 76 76 31 76-31 31-76z m572-215v-250h-786v107l178 179 90-89 285 285z m53 393h-893q-7 0-12-5t-6-13v-678q0-7 6-13t12-5h893q7 0 13 5t5 13v678q0 8-5 13t-13 5z m89-18v-678q0-37-26-63t-63-27h-893q-36 0-63 27t-26 63v678q0 37 26 63t63 27h893q37 0 63-27t26-63z" horiz-adv-x="1071.4" />

<glyph glyph-name="calendar" unicode="&#xe843;" d="M71-79h161v161h-161v-161z m197 0h178v161h-178v-161z m-197 197h161v178h-161v-178z m197 0h178v178h-178v-178z m-197 214h161v161h-161v-161z m411-411h179v161h-179v-161z m-214 411h178v161h-178v-161z m428-411h161v161h-161v-161z m-214 197h179v178h-179v-178z m-196 482v161q0 7-6 12t-12 6h-36q-7 0-12-6t-6-12v-161q0-7 6-13t12-5h36q7 0 12 5t6 13z m410-482h161v178h-161v-178z m-214 214h179v161h-179v-161z m214 0h161v161h-161v-161z m18 268v161q0 7-5 12t-13 6h-35q-7 0-13-6t-5-12v-161q0-7 5-13t13-5h35q8 0 13 5t5 13z m215 36v-715q0-29-22-50t-50-21h-786q-29 0-50 21t-21 50v715q0 29 21 50t50 21h72v54q0 37 26 63t63 26h36q37 0 63-26t26-63v-54h214v54q0 37 27 63t63 26h35q37 0 64-26t26-63v-54h71q29 0 50-21t22-50z" horiz-adv-x="928.6" />

<glyph glyph-name="chat" unicode="&#xe844;" d="M786 421q0-77-53-143t-143-104-197-38q-48 0-98 9-70-49-155-72-21-5-48-9h-2q-6 0-12 5t-6 12q-1 1-1 3t1 4 1 3l1 3t2 3 2 3 3 3 2 2q3 3 13 14t15 16 12 17 14 21 11 25q-69 40-108 98t-40 125q0 78 53 144t143 104 197 38 197-38 143-104 53-144z m214-142q0-67-40-126t-108-98q5-14 11-25t14-21 13-16 14-17 13-14q0 0 2-2t3-3 2-3 2-3l1-3t1-3 1-4-1-3q-2-8-7-13t-12-4q-28 4-48 9-86 23-156 72-50-9-98-9-151 0-263 74 32-3 49-3 90 0 172 25t148 72q69 52 107 119t37 141q0 43-13 85 72-39 114-99t42-128z" horiz-adv-x="1000" />

<glyph glyph-name="check-1" unicode="&#xe845;" d="M786 331v-177q0-67-47-114t-114-47h-464q-67 0-114 47t-47 114v464q0 66 47 113t114 48h464q35 0 65-14 9-4 10-13 2-10-5-16l-27-28q-6-5-13-5-1 0-5 1-13 3-25 3h-464q-37 0-63-26t-27-63v-464q0-37 27-63t63-27h464q37 0 63 27t26 63v141q0 8 5 13l36 35q6 6 13 6 3 0 7-2 11-4 11-16z m129 273l-455-454q-13-14-31-14t-32 14l-240 240q-14 13-14 31t14 32l61 62q14 13 32 13t32-13l147-147 361 361q13 13 31 13t32-13l62-61q13-14 13-32t-13-32z" horiz-adv-x="928.6" />

<glyph glyph-name="pinterest-circled" unicode="&#xe846;" d="M857 350q0-117-57-215t-156-156-215-58q-62 0-122 18 33 52 43 92 6 19 31 118 11-22 40-38t64-16q68 0 121 38t82 105 29 151q0 64-34 120t-96 90-142 36q-59 0-110-17t-86-43-61-61-37-72-12-75q0-58 22-102t66-62q16-7 21 11 1 4 4 17t5 17q3 13-6 24-29 34-29 84 0 84 58 145t153 61q84 0 132-46t47-119q0-95-39-161t-98-67q-34 0-54 25t-13 58q4 19 15 52t17 57 6 43q0 28-15 46t-43 18q-35 0-59-31t-24-80q0-40 14-68l-55-233q-9-39-7-99-115 51-186 157t-71 236q0 117 58 215t155 156 216 58 215-58 156-156 57-215z" horiz-adv-x="857.1" />

<glyph glyph-name="link" unicode="&#xe847;" d="M813 171q0 23-16 38l-116 116q-16 16-38 16-24 0-40-18 1-1 10-10t12-12 9-11 7-14 2-15q0-23-16-38t-38-16q-8 0-15 2t-14 7-11 9-12 12-10 10q-19-17-19-40 0-23 16-38l115-116q15-15 38-15 22 0 38 15l82 81q16 16 16 37z m-393 394q0 22-15 38l-115 115q-16 16-38 16-22 0-38-15l-82-82q-16-15-16-37 0-22 16-38l116-116q15-15 38-15 23 0 40 17-2 2-11 11t-12 12-8 10-7 14-2 16q0 22 15 38t38 15q9 0 16-2t14-7 11-8 12-12 10-11q18 17 18 41z m500-394q0-66-48-113l-82-81q-46-47-113-47-68 0-114 48l-115 115q-46 47-46 114 0 68 49 116l-49 49q-48-49-116-49-67 0-114 47l-116 116q-47 47-47 114t47 113l82 82q47 46 114 46 67 0 114-47l115-116q46-46 46-113 0-69-49-117l49-49q48 49 116 49 67 0 114-47l116-116q47-47 47-114z" horiz-adv-x="928.6" />

<glyph glyph-name="flag" unicode="&#xe848;" d="M179 707q0-40-36-61v-707q0-7-5-12t-13-6h-36q-7 0-12 6t-6 12v707q-35 21-35 61 0 30 21 51t50 21 51-21 21-51z m821-36v-425q0-14-7-22t-22-15q-120-65-206-65-34 0-69 12t-60 27-65 27-79 12q-107 0-259-81-10-5-19-5-14 0-25 10t-10 25v415q0 17 17 30 12 8 44 24 132 67 235 67 60 0 112-16t122-49q21-11 49-11 30 0 65 12t62 26 49 26 30 12q15 0 25-10t11-26z" horiz-adv-x="1000" />

<glyph glyph-name="finden" unicode="&#xe849;" d="M944-94c-25-25-66-25-91 0 0 0 0 0 0 0l-242 244c-61-42-133-67-208-67-200 0-364 164-364 364 0 200 164 364 364 364 200 0 364-164 364-364 0-75-23-147-67-208l242-242c27-25 27-66 2-91 0 0 0 0 0 0z m-30 61l-256 255c-8 9-8 20-2 28 44 56 66 125 69 197 0 178-144 322-322 322-178 3-325-144-325-322s144-322 322-322c72 0 142 25 197 67 9 5 20 5 28-3l256-256c8-8 22-8 30 0 0 0 0 0 0 0 11 11 11 25 3 34 0 0 0 0 0 0z m-511 752c8 0 14-5 14-13 0-9-6-14-14-14-134 0-245-109-245-245 0-8-5-14-14-14s-13 6-13 14c0 150 122 272 272 272z m-192-463c-5 5-5 13 0 19 6 6 14 6 20 0 0 0 0 0 0 0 94-94 250-94 344 0 94 94 94 250 0 344-6 6-6 14 0 20s14 5 19 0c106-106 106-278 0-383-105-106-277-106-383 0l0 0z" horiz-adv-x="1000" />

<glyph glyph-name="gewerblicher-anbieter" unicode="&#xe84a;" d="M397 269c6 12 17 14 28 12 11-6 14-17 11-28-11-25-36-61-80-100-42-36-95-64-156-81-53-14-89-36-117-61-16-17-27-33-33-50-3-11-6-17-6-19 0-11-11-20-22-20s-19 11-19 22c0 0 0 0 0 0 0 25 14 64 50 100 30 31 75 56 133 73 56 14 100 39 139 72 19 17 39 36 53 58 8 6 14 14 19 22l0 0z m170-16c-6 11 0 22 11 28 11 5 22 0 28-12 2-5 8-13 13-25 14-19 31-38 53-58 39-30 84-55 139-72 58-17 103-39 133-72 37-36 50-73 50-100 0-11-8-23-19-23-11 0-19 9-22 20 0 3-3 11-6 19-5 17-16 34-33 50-25 25-64 48-117 61-61 17-114 45-155 81-39 39-64 78-75 103z m-250 247c0-131 83-236 183-236 100 0 183 105 183 236 0 131-83 236-183 236-100 0-183-103-183-236z m-42 0c0 153 100 278 225 278 125 0 225-125 225-278s-100-278-225-278c-125 3-225 128-225 278z m78-322c-3 8 3 14 11 16 8 3 14-2 17-11 0 0 0 0 0 0l47-239c0-8-3-13-11-16-9 0-14 3-17 11l-47 239z m266 5c0 9 9 14 17 11 8 0 14-8 11-16 0 0 0 0 0 0l-47-239c-3-8-8-11-17-11-8 3-11 8-11 16l47 239 0 0z m-138-14c0 9 5 14 13 14s14-5 14-14v-227c0-9-5-14-14-14s-13 5-13 14v227z m194-233c-8 0-14 6-14 14s6 14 14 14h119c9 0 14-6 14-14s-5-14-14-14h-119z" horiz-adv-x="1000" />

<glyph glyph-name="haus" unicode="&#xe84b;" d="M511 119c8 0 14-5 14-13s-6-14-14-14h-164c-8 0-14 5-14 14v236c0 8 6 14 14 14h306c8 0 14-6 14-14s-6-14-14-14h-292v-209h150z m-375 206h-100c-11 0-19 8-19 22 0 6 2 11 5 14l431 400c25 25 66 25 91 0l431-403c8-8 8-22 0-30-3-6-8-6-14-6h-100v-383c0-11-8-22-22-22h-681c-11 0-22 8-22 22v386z m345 406l-392-364h67c11 0 22-9 22-23l0 0v-383h644v383c0 12 9 23 22 23l0 0h67l-392 364c-11 11-27 11-38 0z" horiz-adv-x="1000" />

<glyph glyph-name="hochladen" unicode="&#xe84c;" d="M639 817c5 0 11-3 17-9l180-222c3-3 6-8 6-14v-666c0-12-9-23-23-23h-638c-12 0-23 9-23 23v888c0 12 9 23 20 23 0 0 0 0 0 0h461z m-11-42h-425v-847h597v639l-172 208z m-142-397c0 8 6 14 14 14s14-6 14-14v-264c0-8-6-14-14-14s-14 6-14 14c0 0 0 264 0 264z m-155-161c-6-6-14-6-20 0s-5 14 0 19l181 181c5 5 14 5 19 0l181-181c5-5 5-14 0-19s-14-6-20 0l-172 169c0 0-169-169-169-169z" horiz-adv-x="1000" />

<glyph glyph-name="privater-anbieter" unicode="&#xe84d;" d="M397 269c6 12 17 14 28 12 11-6 14-17 11-28-11-25-36-61-80-100-42-36-95-64-156-81-53-14-89-36-117-61-16-17-27-33-33-50-3-11-6-17-6-19 0-11-11-20-22-20s-19 11-19 22c0 0 0 0 0 0 0 25 14 64 50 100 30 31 75 56 133 73 56 14 100 39 139 72 19 17 39 36 53 58 8 6 14 14 19 22l0 0z m170-16c-6 11 0 22 11 28 11 5 22 0 28-12 2-5 8-13 13-25 14-19 31-38 53-58 39-30 84-55 139-72 58-17 103-39 133-72 37-36 50-73 50-100 0-11-8-23-19-23-11 0-19 9-22 20 0 3-3 11-6 19-5 17-16 34-33 50-25 25-64 48-117 61-61 17-114 45-155 81-39 39-64 78-75 103z m-250 247c0-131 83-236 183-236 100 0 183 105 183 236 0 131-83 236-183 236-100 0-183-103-183-236z m-42 0c0 153 100 278 225 278 125 0 225-125 225-278s-100-278-225-278c-125 3-225 128-225 278z m372-344c3 5 11 8 20 5s8-11 5-19l0 0c-19-39-47-70-80-92-6-3-11-3-17 0-19 19-42 39-64 56l-19 16c-28-25-56-47-81-72-5-3-11-6-17 0-33 22-61 53-80 92-3 5 0 14 5 19 6 3 14 0 17-5 17-31 39-56 64-75l56 50 19 16 8 6c6 5 14 5 20 0l8-6 20-16 55-50c25 16 47 44 61 75l0 0z" horiz-adv-x="1000" />

<glyph glyph-name="sonstiges" unicode="&#xe84e;" d="M550-50v386l-214 120-214-120v-386h428z m22-42h-472c-11 0-22 9-22 23v416c0 9 3 14 11 20l236 133c6 3 14 3 19 0l237-133c5-3 11-11 11-20v-419c0-11-9-20-20-20z m39 473c-11 0-22 8-22 22s8 22 22 22h289c11 0 22-8 22-22v-420c0-11-8-22-22-22h-244c-12 0-23 8-23 22s9 23 23 23h222v375c0 0-267 0-267 0z m289-167c11 0 22-8 22-22s-8-23-22-23l0 0h-253c-11 0-22 9-22 23s8 22 22 22h253z m-242 528c6-3 11-11 11-20v-44c0-11-8-22-22-22h-183c-11 0-22 8-22 22v44c0 9 5 14 11 20l91 50c6 2 14 2 20 0l94-50z m-102 5l-70-36v-11h142v11c0 0-72 36-72 36z m-78-66c0 11 11 19 22 19 11 0 19-11 19-22l-13-156c0-11-12-19-23-19-11 0-19 11-19 22 0 0 14 156 14 156z m214-192c8-8 8-22 0-31-9-8-23-8-31 0 0 0 0 0 0 0l-50 50c-3 3-5 9-5 14l-14 156c0 11 8 22 19 22 11 0 22-8 22-19l14-148 45-44 0 0z" horiz-adv-x="1000" />

<glyph glyph-name="teilen" unicode="&#xe84f;" d="M800 442h-200c-11 0-22 8-22 22s8 22 22 22h222c11 0 22-8 22-22v-556c0-11-8-22-22-22h-639c-11 0-22 8-22 22v553c0 11 8 22 22 22h223c11 0 22-8 22-22s-9-22-22-22h-203v-514h597v517z m-319 325c0 11 8 22 22 22 11 0 22-8 22-22v-625c0-11-8-23-22-23-11 0-22 9-22 23v625z m19-3l-164-164c-8-8-22-8-30 0-9 8-9 22 0 31 0 0 0 0 0 0l180 180c8 8 22 8 31 0l177-180c9-9 9-23 0-31-8-8-19-8-27 0 0 0-167 164-167 164z" horiz-adv-x="1000" />

<glyph glyph-name="verkaufen" unicode="&#xe850;" d="M325 461c-11 0-22 8-22 22 0 11 8 23 22 23h92c11 0 22-9 22-23 0-11-8-22-22-22h-92z m0-61c-11 0-22 8-22 22s8 22 22 22h92c11 0 22-8 22-22s-8-22-22-22h-92z m125-25c11 0 19-8 19-22s-8-22-19-22l0 0c-64 0-117 52-117 116s53 117 117 117c11 0 19-8 19-22 0-11-8-23-19-23l0 0c-42 0-75-33-75-75s33-69 75-69z m-403-114v350c0 11 9 20 22 20 0 0 3 0 3 0 47-6 95-9 142-9 58 0 105 3 194 11l9 0c97 9 144 11 205 11 50 0 97-2 147-8 12 0 20-11 20-19v-348c0-11-8-22-20-22 0 0-2 0-2 0-48 6-95 9-142 9-58 0-106-3-194-12l-9 0c-97-8-144-11-205-11-50 0-98 3-148 9-13 0-22 8-22 19z m167 14c58 0 105 3 200 11l8 0c92 8 139 11 197 11 42 0 84-3 125-5v308c-41 3-83 6-122 6-58 0-105-3-200-12l-8 0c-92-8-139-11-200-11-42 0-83 3-125 6v-306c42-8 83-8 125-8z m-83 17c-12 0-20 11-20 22 0 11 11 19 22 19 0 0 0 0 0 0 31-2 61-2 95-2 11 0 22-9 22-20s-8-22-19-22l-6 0c-33 0-64 0-94 3z m575 294c11 0 19-11 19-22s-11-20-22-20c0 0 0 0 0 0-31 3-59 3-89 3h-6c-11 0-22 9-22 22 0 12 8 23 22 23h6c30-3 61-3 92-6z m122-58c0 11 8 22 22 22s22-8 22-22v-347c0-12-8-23-19-23 0 0-3 0-3 0-47 6-94 9-142 9-58 0-105-3-194-11l-14 0c-97-9-144-12-206-12-50 0-97 3-147 9-11 3-19 11-16 22 2 11 11 19 22 17 47-6 94-9 141-9 59 0 106 3 200 11l9 0c91 9 139 12 197 12 42 0 83-3 125-6v328z m83-89c0 11 8 22 22 22 11 0 23-8 23-22v-347c0-11-9-20-23-20 0 0-2 0-2 0-48 6-95 9-142 9-58 0-106-3-195-12l-11 0-8 0c-92-8-139-11-197-11-50 0-97 3-147 9-12 2-20 11-17 22 3 11 11 19 22 17 47-6 95-9 142-9 58 0 103 3 194 11l9 0 11 0c89 9 139 11 197 11 42 0 83-2 125-5-3 0-3 325-3 325z" horiz-adv-x="1000" />

<glyph glyph-name="vermieten" unicode="&#xe851;" d="M619 414c12 11 31 11 42 0s11-31 0-42l0 0c-11-11-30-11-42 0-8 11-11 31 0 42l0 0m0 0c12 11 31 11 42 0s11-31 0-42l0 0c-11-11-30-11-42 0-8 11-11 31 0 42 0 0 0 0 0 0z m-288 36c5-11 2-22-6-28-11-5-22-3-28 6 0 0 0 0 0 0-66 114-30 261 84 330 94 56 211 42 291-33 95-92 97-244 6-342 0 0 0 0 0 0-9-8-22-8-31 0-8 9-8 23 0 31 75 78 72 205-8 280s-206 75-281-5c-64-64-75-161-27-239z m227-328c-8 9-8 22 0 31 0 0 0 0 0 0l61 61c9 8 23 8 31 0 8-8 8-22 0-31 0 0 0 0 0 0l-47-47 55-55c9-9 9-23 0-31 0 0 0 0 0 0l-55-56 39-38 55 55v203c0 11 9 22 22 22s23-8 23-22v-214c0-6-3-11-6-14l-75-75c-8-8-22-8-30 0 0 0 0 0 0 0l-70 70c-8 8-8 22 0 30 0 0 0 0 0 0l56 56c-3 0-59 55-59 55z m75 56c-100 5-177 89-172 189 3 97 83 172 181 172 100 0 180-81 180-181 0-66-36-127-94-158-11-6-22-3-28 8-6 11-3 23 8 28 0 0 0 0 0 0 67 36 92 120 56 189-36 67-120 92-189 56-44-25-72-73-72-123 0-75 58-136 130-139l3 0c11 0 20-11 20-19 0-14-12-22-23-22 0 0 0 0 0 0z m3 39c0 0 0 0 0 0l0 0z m0 0l0 0c0 0 0 0 0 0l0 0z m-236-6c6-8 6-22-6-28-8-5-22-5-27 3-64 70-64 178 2 247 42 42 103 64 162 53 11-3 19-14 16-25-3-11-14-19-25-17-44 9-91-8-122-41-53-50-53-136 0-192l0 0c0 0 0 0 0 0 0 0 0 0 0 0z m0 0c0 0-3 3 0 0-3 3-3 3 0 0 0 0 0 0 0 0z m197 0c9 8 22 8 31 0 8-8 8-22 0-30l0 0c-47-48-114-67-178-48-11 3-17 14-14 25 3 11 14 17 25 14 50-11 103 3 136 39l0 0z m-136-36c11-3 17-14 14-25-3-11-14-17-25-14-28 8-56 22-75 45-3 2-3 2-6 5l0 0c-8 8-8 22 0 31s23 8 31 0c0 0 3-3 3-3l0 0c16-22 36-33 58-39z m-186 22c0 11 8 22 19 22 0 0 0 0 0 0l87 0c11 0 22-8 22-19s-9-22-20-22l-66 0 0-78c0-11-9-22-20-22 0 0 0 0 0 0l-78 0 0-56 78 0 142 147c8 9 22 9 30 0 9-8 9-22 0-30l0 0-147-153c-3-3-8-5-14-5l-105-3c-11 0-22 8-22 19 0 0 0 0 0 0l-3 97c0 12 8 23 19 23 0 0 0 0 0 0l78 0 0 80z" horiz-adv-x="1000" />

<glyph glyph-name="wohnung" unicode="&#xe852;" d="M164 656c0 11 8 22 22 22s20-11 20-22v-50c0-12-9-23-23-23s-19 9-19 20v53z m142 0c0 11 8 22 22 22s22-9 22-22v-50c0-12-8-23-22-23s-22 9-22 20v53z m141 0c0 11 9 19 22 19 12 0 20-8 20-19v-50c0-12-8-23-22-23-11 0-23 9-23 23 3-3 3 50 3 50z m142 0c0 11 8 22 22 22 11 0 22-9 22-22v-50c0-12-8-23-22-23-11 0-22 9-22 23v50z m-425-178c0 11 8 22 22 22s22-8 22-22v-50c0-11-8-22-22-22s-22 8-22 22v50l0 0z m142 0c0 11 8 22 22 22s22-8 22-22v-50c0-11-8-22-22-22s-22 11-22 22v50l0 0z m141 0c0 11 9 19 22 19 12 0 20-8 20-19v-50c0-11-8-22-22-22-11 0-23 8-23 22v50l3 0z m142 0c0 11 8 22 22 22 11 0 22-8 22-22v-50c0-11-8-22-22-22-11 0-22 8-22 22v50l0 0z m-425-175c0 11 8 22 22 22s22-8 22-22v-50c0-11-8-22-22-22s-22 8-22 22v50z m142 0c0 11 8 22 22 22s22-8 22-22v-50c0-11-8-22-22-22s-22 11-22 22v50z m141 0c0 11 9 19 22 19 12 0 20-8 20-19v-50c0-11-8-22-22-22-11 0-23 8-23 22 3 0 3 50 3 50z m142 0c0 11 8 22 22 22 11 0 22-8 22-22v-50c0-11-8-22-22-22-11 0-22 8-22 22v50z m222 175c0 11 8 22 22 22 11 0 23-8 23-22v-50c0-11-9-22-23-22-11 0-22 8-22 22v50l0 0z m0-175c0 11 8 22 22 22 11 0 23-8 23-22v-50c0-11-9-22-23-22-11 0-22 8-22 22v50z m-647-175c0 11 8 22 22 22s22-8 22-22v-50c0-11-8-22-22-22s-22 8-22 22v50z m142 0c0 11 8 22 22 22s22-8 22-22v-50c0-11-8-22-22-22s-22 11-22 22v50z m505 0c0 11 8 22 22 22 11 0 23-8 23-22v-50c0-11-9-22-23-22-11 0-22 8-22 22v50z m-744-211c-11 0-23 8-23 22v825c0 11 9 22 23 22h658c11 0 22-8 22-22v-828c0-11-8-22-22-22h-658z m22 41h617v784h-617v-784z m400-22c0-11-8-22-22-22-11 0-23 8-23 22v192c0 11 9 22 23 22h136c11 0 22-8 22-22 0-11-8-22-22-22h-114v-170z m236 647c-11 0-22 9-22 23s8 22 22 22h208c11 0 23-9 23-22v-667c0-11-9-22-23-22h-208c-11 0-22 8-22 22 0 11 8 22 22 22h186v622h-186z" horiz-adv-x="1000" />

<glyph glyph-name="ausland" unicode="&#xe853;" d="M419 322c-5 0-11 6-13 11l-20 100c0 3 0 6 0 9l20 52c2 6 5 9 11 9l86 8h3l80-8c3 0 8-3 8-6l59-80 25-42 44-11c9-3 11-8 11-17 0 0 0-3 0-3l-72-147-3-3-69-80c-6-6-14-6-20 0 0 0 0 0-2 3l-48 66c-2 3-2 3-2 6l-11 72-12 61c0 0-75 0-75 0z m87 164l-75-8-14-42 16-86h75c6 0 14-6 14-11l11-72 11-70 39-50 56 64 64 131-34 8c-2 0-5 3-8 6l-28 44-52 75c0 3-75 11-75 11z m5 178l-67 53c-5 5-8 14-2 19 2 8 11 8 16 3l81-64c5-6 8-14 3-19 0 0 0 0-3-3l-28-25-33-36c-3-3-6-3-9-3l-30-6v-22l28 14c2 0 5 3 8 0l114-11c3 0 5-3 8-3l114-117 131-11c8 0 14-8 14-14 0-8-9-13-14-13 0 0 0 0 0 0l-134 11c-2 0-5 2-8 2l-117 120-102 11-45-19c-8-3-14 0-19 5 0 3 0 3 0 6v55c0 6 5 11 11 14l36 8 30 34c0-3 17 11 17 11z m-322-450c-8 0-14 8-11 17s8 13 16 11l123-20c5 0 11-5 11-11l28-136c0-8-3-14-12-17-8 0-13 3-16 11l-25 128-114 17z m311-200c-203 0-369 164-369 369s166 367 369 367 369-164 369-369-166-367-369-367z m0 42c181 0 328 147 328 327s-147 325-328 325-325-147-325-327 144-325 325-325z m-28 741c-8 0-14 6-14 14s6 14 14 14h59c8 0 13-6 13-14s-5-14-13-14c0 0-59 0-59 0z m9 22h41v-100h-41v100z m0-777h41v-156h-41v156z m158-125c11 0 22-9 22-23s-8-22-22-22h-278c-11 0-22 9-22 22s8 23 22 23c0 0 278 0 278 0z" horiz-adv-x="1000" />

<glyph glyph-name="bild" unicode="&#xe854;" d="M222 419c-53 0-97 45-97 98s44 97 97 97 97-45 97-97-44-98-97-98z m0 28c39 0 70 31 70 70s-31 69-70 69-69-30-69-69 30-70 69-70z m-144 214v-625h847v625c0 0-847 0-847 0z m-22 42h888c12 0 23-9 23-22v-667c0-11-9-22-23-22h-888c-12 0-23 8-23 22v669c3 11 11 20 23 20z m336-442l266 267c6 5 14 5 20 0l194-195c3-2 3-5 3-11v-222c0-8-6-14-14-14h-722c-8 0-14 6-14 14v83c0 3 3 9 3 11l166 167c6 6 14 6 20 0 0 0 0 0 0-3l78-97z m455-147v203l-180 180-267-266c-6-6-14-6-19 0 0 0 0 0 0 2l-75 98-150-150v-64h691z" horiz-adv-x="1000" />

<glyph glyph-name="deutschland" unicode="&#xe855;" d="M289 489h72c20 0 36-3 50-6 14-2 25-11 36-19 28-25 45-64 45-114 0-17-3-31-6-44-3-14-8-25-14-37-5-11-14-22-22-30-8-6-17-11-25-17-8-3-19-8-28-8-11-3-22-3-36-3h-72c-11 0-17 3-22 6-6 2-9 8-11 14-3 8-3 13-3 22v203c0 11 3 22 8 25 6 5 14 8 28 8l0 0z m19-45v-188h42c8 0 17 0 22 0 6 0 11 2 17 2 5 3 11 6 14 9 19 16 28 44 28 83 0 28-3 47-12 61-8 14-19 22-30 25-11 3-28 6-45 6 3 2-36 2-36 2z m417 3h-128v-69h117c8 0 14-3 19-6 6-3 6-8 6-14 0-5-3-11-6-16-2-3-11-6-19-6h-117v-80h131c8 0 16-3 19-6 6-6 9-11 6-17 0-5-3-11-6-16-5-3-11-6-19-6h-153c-11 0-22 3-28 8-5 6-8 14-8 28v209c0 8 0 13 3 19 2 6 5 8 11 11 5 3 11 3 19 3h150c9 0 17-3 20-6 5-2 5-11 5-16 0-6-3-11-5-17-3-3-9-3-17-3l0 0z m-225-564c-256 0-464 209-464 467s208 464 464 464 467-208 467-464-209-467-467-467z m0 42c233 0 425 189 425 425s-192 422-425 422-422-189-422-422 189-425 422-425z" horiz-adv-x="1000" />

<glyph glyph-name="energieausweis" unicode="&#xe856;" d="M36 144c0 12 8 23 22 23h761c6 0 9-3 14-6l128-100c8-8 11-19 3-30 0-3-3-3-3-3l-128-100c-2-3-8-6-14-6h-763c-12 0-23 9-23 22v200z m42-22v-155h733l100 77-100 78h-733z m75-89c-9 0-14 6-14 14s5 14 14 14h166c9 0 14-5 14-14s-5-14-14-14h-166z m-117 417c0 11 8 22 22 22h614c6 0 9-3 11-3l136-100c9-5 12-19 6-27 0-3-3-3-6-6l-136-100c-2-3-8-3-11-3h-616c-12 0-23 9-23 23v194z m42-178h586l108 78-108 78h-586v-156z m75 372c-9 0-14 6-14 14s5 14 14 14h166c9 0 14-5 14-14s-5-14-14-14h-166z m-117 112c0 11 8 19 20 19h480c6 0 8-3 14-6l131-100c8-8 11-19 2-30 0-3-2-3-2-3l-131-100c-3-3-8-5-14-5h-480c-12 0-23 8-23 22v203z m42-23v-155h453l102 78-102 77c0 0-453 0-453 0z m75-394c-9 0-14 5-14 14s5 14 14 14h166c9 0 14-6 14-14s-5-14-14-14h-166z" horiz-adv-x="1000" />

<glyph glyph-name="heart" unicode="&#xe857;" d="M500-79q-14 0-25 10l-348 336q-5 5-15 15t-31 37-38 54-30 67-13 77q0 123 71 192t196 70q34 0 70-12t67-33 54-38 42-38q20 20 42 38t54 38 67 33 70 12q125 0 196-70t71-192q0-123-128-251l-347-335q-10-10-25-10z" horiz-adv-x="1000" />

<glyph glyph-name="cw" unicode="&#xe858;" d="M857 707v-250q0-14-10-25t-26-11h-250q-23 0-32 23-10 22 7 38l77 77q-82 77-194 77-58 0-111-23t-91-61-61-91-23-111 23-111 61-91 91-61 111-23q66 0 125 29t100 82q4 6 13 7 8 0 14-5l76-77q5-4 6-11t-5-13q-60-74-147-114t-182-41q-87 0-167 34t-136 92-92 137-34 166 34 166 92 137 136 92 167 34q82 0 158-31t137-88l72 72q17 18 39 8 22-9 22-33z" horiz-adv-x="857.1" />

<glyph glyph-name="wohnen-auf-zeit" unicode="&#xe859;" d="M725 71c0-94 76-170 170-170 94 0 170 76 170 170s-76 169-170 169c-94 0-170-76-170-169z m-43 0c0 117 95 212 213 212s213-95 213-212c0-118-95-213-213-213-118 0-213 95-213 213z m292 21a21 21 0 1 0 0-43h-79a21 21 0 0 0-21 22v105a21 21 0 1 0 43 0v-84h57z m-450 42a14 14 0 1 0 0-29h-168a14 14 0 0 0-14 14v244a14 14 0 0 0 14 14h315a14 14 0 1 0 0-29h-301v-214h154z m343 187a21 21 0 0 0-22 21v23a21 21 0 0 0 22 22h69l-85 79a21 21 0 0 0-7 15v307h-121v-154a21 21 0 0 0-36-15l-155 144a27 27 0 0 1-37 0l-404-376h69a21 21 0 0 0 22-22v-395h461a21 21 0 0 0 0-42h-483a21 21 0 0 0-21 21v395h-103a21 21 0 0 0-14 37l444 413a70 70 0 0 0 95 0l119-111v127a21 21 0 0 0 22 21h164a21 21 0 0 0 21-21v-319l118-110a21 21 0 0 0-14-37h-103c0-14-10-23-21-23z" horiz-adv-x="1114" />

<glyph glyph-name="doc-laden" unicode="&#xe85a;" d="M66-99l302 0c12 0 22-9 22-22 0-12-10-22-22-22l-324 0c-12 0-22 10-22 22l0 942c0 12 10 22 22 22l647 0c12 0 22-10 22-22l0-471c0-12-10-22-22-22-12 0-22 10-22 22l0 449-603 0 0-898z m155 721c-13 0-22 10-22 22 0 12 9 22 22 22l294 0c12 0 22-10 22-22 0-12-10-22-22-22l-294 0z m0-147c-13 0-22 10-22 22 0 12 9 22 22 22l294 0c12 0 22-10 22-22 0-12-10-22-22-22l-294 0z m0-147c-13 0-22 10-22 22 0 12 9 22 22 22l147 0c12 0 22-10 22-22 0-12-10-22-22-22l-147 0z m360-125c0 12 10 22 22 22 12 0 22-10 22-22l0-206c0-12-10-22-22-22-12 0-22 10-22 22l0 206z m95-131c8 8 22 8 31 0 8-9 8-23 0-32l-88-88c-9-9-23-9-32 0l-88 88c-8 9-8 23 0 32 9 8 23 8 31 0l73-73 73 73z m-161-215c-12 0-22 10-22 22 0 13 10 22 22 22l176 0c12 0 22-9 22-22 0-12-10-22-22-22l-176 0z" horiz-adv-x="735" />

<glyph glyph-name="zoom-in" unicode="&#xe85b;" d="M571 404v-36q0-7-5-13t-12-5h-125v-125q0-7-6-13t-12-5h-36q-7 0-13 5t-5 13v125h-125q-7 0-12 5t-6 13v36q0 7 6 12t12 5h125v125q0 8 5 13t13 5h36q7 0 12-5t6-13v-125h125q7 0 12-5t5-12z m72-18q0 103-73 176t-177 74-177-74-73-176 73-177 177-73 177 73 73 177z m286-465q0-29-21-50t-51-21q-30 0-50 21l-191 191q-100-69-223-69-80 0-153 31t-125 84-84 125-31 153 31 152 84 126 125 84 153 31 153-31 125-84 84-126 31-152q0-123-69-223l191-191q21-21 21-51z" horiz-adv-x="928.6" />

<glyph glyph-name="zoom-out" unicode="&#xe85c;" d="M571 404v-36q0-7-5-13t-12-5h-322q-7 0-12 5t-6 13v36q0 7 6 12t12 5h322q7 0 12-5t5-12z m72-18q0 103-73 176t-177 74-177-74-73-176 73-177 177-73 177 73 73 177z m286-465q0-29-21-50t-51-21q-30 0-50 21l-191 191q-100-69-223-69-80 0-153 31t-125 84-84 125-31 153 31 152 84 126 125 84 153 31 153-31 125-84 84-126 31-152q0-123-69-223l191-191q21-21 21-51z" horiz-adv-x="928.6" />

<glyph glyph-name="chart-pie-1" unicode="&#xe85d;" d="M449 251l292 292q103-128 103-293 0-137-73-250-11-18-32-20t-35 13z m-136-23l270-271q-97-72-218-72-151 0-258 107t-107 259q0 137 90 240t223 121l0-384z m381 427l-278-279 0 394q0 21 16 35t37 10q122-23 221-92 18-12 18-33t-14-35z" horiz-adv-x="844" />

<glyph glyph-name="glyph-3" unicode="&#xf002;" d="M643 386q0 103-73 176t-177 74-177-74-73-176 73-177 177-73 177 73 73 177z m286-465q0-29-22-50t-50-21q-30 0-50 21l-191 191q-100-69-223-69-80 0-153 31t-125 84-84 125-31 153 31 152 84 126 125 84 153 31 153-31 125-84 84-126 31-152q0-123-69-223l191-191q21-21 21-51z" horiz-adv-x="928.6" />

<glyph glyph-name="pen" unicode="&#xf040;" d="M203-7l50 51-131 131-51-51v-60h72v-71h60z m291 518q0 12-12 12-5 0-9-4l-303-302q-4-4-4-10 0-12 13-12 5 0 9 4l303 302q3 4 3 10z m-30 107l232-232-464-465h-232v233z m381-54q0-29-20-50l-93-93-232 233 93 92q20 21 50 21 29 0 51-21l131-131q20-22 20-51z" horiz-adv-x="857.1" />

<glyph glyph-name="glyph-2" unicode="&#xf055;" d="M679 314v72q0 14-11 25t-25 10h-143v143q0 15-11 25t-25 11h-71q-15 0-25-11t-11-25v-143h-143q-14 0-25-10t-10-25v-72q0-14 10-25t25-10h143v-143q0-15 11-25t25-11h71q15 0 25 11t11 25v143h143q14 0 25 10t11 25z m178 36q0-117-57-215t-156-156-215-58-216 58-155 156-58 215 58 215 155 156 216 58 215-58 156-156 57-215z" horiz-adv-x="857.1" />

<glyph glyph-name="link-ext" unicode="&#xf08e;" d="M786 332v-178q0-67-47-114t-114-47h-464q-67 0-114 47t-47 114v464q0 66 47 113t114 48h393q7 0 12-5t5-13v-36q0-8-5-13t-12-5h-393q-37 0-63-26t-27-63v-464q0-37 27-63t63-27h464q37 0 63 27t26 63v178q0 8 5 13t13 5h36q8 0 13-5t5-13z m214 482v-285q0-15-11-25t-25-11-25 11l-98 98-364-364q-5-6-13-6t-12 6l-64 64q-6 5-6 12t6 13l364 364-98 98q-11 11-11 25t11 25 25 11h285q15 0 25-11t11-25z" horiz-adv-x="1000" />

<glyph glyph-name="check-empty" unicode="&#xf096;" d="M625 707h-464q-37 0-63-26t-27-63v-464q0-37 27-63t63-27h464q37 0 63 27t26 63v464q0 37-26 63t-63 26z m161-89v-464q0-67-47-114t-114-47h-464q-67 0-114 47t-47 114v464q0 66 47 113t114 48h464q66 0 114-48t47-113z" horiz-adv-x="785.7" />

<glyph glyph-name="up-circled" unicode="&#xf0aa;" d="M717 351q0 15-10 25l-202 202-51 51q-10 10-25 10t-25-10l-51-51-202-202q-10-10-10-25t10-26l51-50q10-10 25-10t25 10l105 105v-280q0-14 11-25t25-11h71q15 0 25 11t11 25v280l106-105q10-11 25-11t25 11l51 50q10 11 10 26z m140-1q0-117-57-215t-156-156-215-58-216 58-155 156-58 215 58 215 155 156 216 58 215-58 156-156 57-215z" horiz-adv-x="857.1" />

<glyph glyph-name="filter" unicode="&#xf0b0;" d="M783 685q9-22-8-39l-275-275v-414q0-23-22-33-7-3-14-3-15 0-25 11l-143 143q-10 11-10 25v271l-275 275q-18 17-8 39 9 22 33 22h714q23 0 33-22z" horiz-adv-x="785.7" />

<glyph glyph-name="resize-full-alt" unicode="&#xf0b2;" d="M716 548l-198-198 198-198 80 80q17 18 39 8 22-9 22-33v-250q0-14-10-25t-26-11h-250q-23 0-32 23-10 21 7 38l81 81-198 198-198-198 80-81q17-17 8-38-10-23-33-23h-250q-15 0-25 11t-11 25v250q0 24 22 33 22 10 39-8l80-80 198 198-198 198-80-80q-11-11-25-11-7 0-14 3-22 9-22 33v250q0 14 11 25t25 11h250q23 0 33-23 9-21-8-38l-80-81 198-198 198 198-81 81q-17 17-7 38 9 23 32 23h250q15 0 26-11t10-25v-250q0-24-22-33-7-3-14-3-14 0-25 11z" horiz-adv-x="857.1" />

<glyph glyph-name="docs" unicode="&#xf0c5;" d="M946 636q23 0 38-16t16-38v-678q0-23-16-38t-38-16h-535q-23 0-38 16t-16 38v160h-303q-23 0-38 16t-16 38v375q0 22 11 49t27 42l228 228q15 16 42 27t49 11h232q23 0 38-16t16-38v-183q38 23 71 23h232z m-303-119l-167-167h167v167z m-357 214l-167-167h167v167z m109-361l176 176v233h-214v-233q0-22-15-37t-38-16h-233v-357h286v143q0 22 11 49t27 42z m534-449v643h-215v-232q0-22-15-38t-38-15h-232v-358h500z" horiz-adv-x="1000" />

<glyph glyph-name="blank" unicode="&#xf0c8;" d="M857 618v-536q0-66-47-113t-114-48h-535q-67 0-114 48t-47 113v536q0 66 47 113t114 48h535q67 0 114-48t47-113z" horiz-adv-x="857.1" />

<glyph glyph-name="chat-empty" unicode="&#xf0e6;" d="M393 636q-85 0-160-29t-118-79-44-107q0-45 30-88t83-73l54-32-19-46q19 11 34 21l25 18 30-6q43-8 85-8 85 0 160 29t118 79 43 106-43 107-118 79-160 29z m0 71q106 0 197-38t143-104 53-144-53-143-143-104-197-38q-48 0-98 9-70-49-155-72-21-5-48-9h-2q-6 0-12 5t-6 12q-1 1-1 3t1 4 1 3l1 3t2 3 2 3 3 3 2 2q3 3 13 14t15 16 12 17 14 21 11 25q-69 40-108 98t-40 125q0 78 53 144t143 104 197 38z m459-652q5-14 11-25t14-21 13-16 14-17 13-14q0 0 2-2t3-3 2-3 2-3l1-3t1-3 1-4-1-3q-2-8-7-13t-12-4q-28 4-48 9-86 23-156 72-50-9-98-9-151 0-263 74 32-3 49-3 90 0 172 25t148 72q69 52 107 119t37 141q0 43-13 85 72-39 114-99t42-128q0-67-40-126t-108-98z" horiz-adv-x="1000" />

<glyph glyph-name="building" unicode="&#xf0f7;" d="M214 118v-36q0-7-5-12t-13-6h-35q-7 0-13 6t-5 12v36q0 7 5 12t13 6h35q8 0 13-6t5-12z m0 143v-36q0-7-5-13t-13-5h-35q-7 0-13 5t-5 13v36q0 7 5 12t13 6h35q8 0 13-6t5-12z m143 0v-36q0-7-5-13t-13-5h-35q-8 0-13 5t-5 13v36q0 7 5 12t13 6h35q8 0 13-6t5-12z m-143 143v-36q0-7-5-13t-13-5h-35q-7 0-13 5t-5 13v36q0 7 5 12t13 5h35q8 0 13-5t5-12z m429-286v-36q0-7-5-12t-13-6h-36q-7 0-12 6t-6 12v36q0 7 6 12t12 6h36q7 0 13-6t5-12z m-143 143v-36q0-7-5-13t-13-5h-36q-7 0-12 5t-5 13v36q0 7 5 12t12 6h36q7 0 13-6t5-12z m-143 143v-36q0-7-5-13t-13-5h-35q-8 0-13 5t-5 13v36q0 7 5 12t13 5h35q8 0 13-5t5-12z m-143 142v-35q0-7-5-13t-13-5h-35q-7 0-13 5t-5 13v35q0 8 5 13t13 5h35q8 0 13-5t5-13z m429-285v-36q0-7-5-13t-13-5h-36q-7 0-12 5t-6 13v36q0 7 6 12t12 6h36q7 0 13-6t5-12z m-143 143v-36q0-7-5-13t-13-5h-36q-7 0-12 5t-5 13v36q0 7 5 12t12 5h36q7 0 13-5t5-12z m-143 142v-35q0-7-5-13t-13-5h-35q-8 0-13 5t-5 13v35q0 8 5 13t13 5h35q8 0 13-5t5-13z m-143 143v-35q0-8-5-13t-13-5h-35q-7 0-13 5t-5 13v35q0 8 5 13t13 5h35q8 0 13-5t5-13z m429-285v-36q0-7-5-13t-13-5h-36q-7 0-12 5t-6 13v36q0 7 6 12t12 5h36q7 0 13-5t5-12z m-143 142v-35q0-7-5-13t-13-5h-36q-7 0-12 5t-5 13v35q0 8 5 13t12 5h36q7 0 13-5t5-13z m-143 143v-35q0-8-5-13t-13-5h-35q-8 0-13 5t-5 13v35q0 8 5 13t13 5h35q8 0 13-5t5-13z m286-143v-35q0-7-5-13t-13-5h-36q-7 0-12 5t-6 13v35q0 8 6 13t12 5h36q7 0 13-5t5-13z m-143 143v-35q0-8-5-13t-13-5h-36q-7 0-12 5t-5 13v35q0 8 5 13t12 5h36q7 0 13-5t5-13z m143 0v-35q0-8-5-13t-13-5h-36q-7 0-12 5t-6 13v35q0 8 6 13t12 5h36q7 0 13-5t5-13z m-143-768h214v858h-643v-858h215v125q0 8 5 13t13 5h178q7 0 13-5t5-13v-125z m286 893v-928q0-15-11-25t-25-11h-714q-15 0-25 11t-11 25v928q0 15 11 25t25 11h714q15 0 25-11t11-25z" horiz-adv-x="785.7" />

<glyph glyph-name="angle-double-up" unicode="&#xf102;" d="M600 118q0-7-6-13l-28-28q-5-5-12-5t-13 5l-220 219-219-219q-5-5-13-5t-12 5l-28 28q-6 6-6 13t6 13l260 260q5 5 12 5t13-5l260-260q6-6 6-13z m0 214q0-7-6-13l-28-28q-5-5-12-5t-13 5l-220 220-219-220q-5-5-13-5t-12 5l-28 28q-6 6-6 13t6 13l260 260q5 6 12 6t13-6l260-260q6-6 6-13z" horiz-adv-x="642.9" />

<glyph glyph-name="circle-empty" unicode="&#xf10c;" d="M429 654q-83 0-153-41t-110-111-41-152 41-152 110-111 153-41 152 41 110 111 41 152-41 152-110 111-152 41z m428-304q0-117-57-215t-156-156-215-58-216 58-155 156-58 215 58 215 155 156 216 58 215-58 156-156 57-215z" horiz-adv-x="857.1" />

<glyph glyph-name="circle" unicode="&#xf111;" d="M857 350q0-117-57-215t-156-156-215-58-216 58-155 156-58 215 58 215 155 156 216 58 215-58 156-156 57-215z" horiz-adv-x="857.1" />

<glyph glyph-name="crop" unicode="&#xf125;" d="M311 136h332v332z m-25 25l332 332h-332v-332z m643-43v-107q0-8-5-13t-13-5h-125v-125q0-8-5-13t-13-5h-107q-8 0-13 5t-5 13v125h-482q-8 0-13 5t-5 13v482h-125q-8 0-13 5t-5 13v107q0 8 5 13t13 5h125v125q0 8 5 13t13 5h107q8 0 13-5t5-13v-125h475l137 138q6 5 13 5t13-5q5-6 5-13t-5-13l-138-137v-475h125q8 0 13-5t5-13z" horiz-adv-x="928.6" />

<glyph glyph-name="glyph-1" unicode="&#xf129;" d="M357 100v-71q0-15-10-25t-26-11h-285q-15 0-25 11t-11 25v71q0 15 11 25t25 11h35v214h-35q-15 0-25 11t-11 25v71q0 15 11 25t25 11h214q15 0 25-11t11-25v-321h35q15 0 26-11t10-25z m-71 643v-107q0-15-11-25t-25-11h-143q-14 0-25 11t-11 25v107q0 14 11 25t25 11h143q15 0 25-11t11-25z" horiz-adv-x="357.1" />

<glyph glyph-name="calendar-empty" unicode="&#xf133;" d="M71-79h786v572h-786v-572z m215 679v161q0 8-5 13t-13 5h-36q-8 0-13-5t-5-13v-161q0-8 5-13t13-5h36q8 0 13 5t5 13z m428 0v161q0 8-5 13t-13 5h-35q-8 0-13-5t-5-13v-161q0-8 5-13t13-5h35q8 0 13 5t5 13z m215 36v-715q0-29-22-50t-50-21h-786q-29 0-50 21t-21 50v715q0 29 21 50t50 21h72v54q0 37 26 63t63 26h36q37 0 63-26t26-63v-54h214v54q0 37 27 63t63 26h35q37 0 64-26t26-63v-54h71q29 0 50-21t22-50z" horiz-adv-x="928.6" />

<glyph glyph-name="play-circled" unicode="&#xf144;" d="M429 779q116 0 215-58t156-156 57-215-57-215-156-156-215-58-216 58-155 156-58 215 58 215 155 156 216 58z m214-460q18 10 18 31t-18 31l-304 178q-17 11-35 1-18-11-18-31v-358q0-20 18-31 9-4 17-4 10 0 18 5z" horiz-adv-x="857.1" />

<glyph glyph-name="link-ext-alt" unicode="&#xf14c;" d="M714 332v268q0 15-10 25t-25 11h-268q-24 0-33-22-10-23 8-39l80-80-298-298q-11-11-11-26t11-25l57-57q11-10 25-10t25 10l298 298 81-80q10-11 25-11 6 0 14 3 21 10 21 33z m143 286v-536q0-66-47-113t-114-48h-535q-67 0-114 48t-47 113v536q0 66 47 113t114 48h535q67 0 114-48t47-113z" horiz-adv-x="857.1" />

<glyph glyph-name="thumbs-up-alt" unicode="&#xf164;" d="M143 100q0 15-11 25t-25 11q-15 0-25-11t-11-25q0-15 11-25t25-11q15 0 25 11t11 25z m89 286v-357q0-15-10-25t-26-11h-160q-15 0-25 11t-11 25v357q0 14 11 25t25 10h160q15 0 26-10t10-25z m661 0q0-48-31-83 9-25 9-43 1-42-24-76 9-31 0-66-9-31-31-52 5-62-27-101-36-43-110-44h-72q-37 0-80 9t-68 16-67 22q-69 24-88 25-15 0-25 11t-11 25v357q0 14 10 25t24 11q13 1 42 33t57 67q38 49 56 67 10 10 17 27t10 27 8 34q4 22 7 34t11 29 19 28q10 11 25 11 25 0 46-6t33-15 22-22 14-25 7-28 2-25 1-22q0-21-6-43t-10-33-16-31q-1-4-5-10t-6-13-5-13h155q43 0 75-32t32-75z" horiz-adv-x="928.6" />

<glyph glyph-name="thumbs-down-alt" unicode="&#xf165;" d="M143 529q0-15-11-25t-25-11q-15 0-25 11t-11 25q0 15 11 25t25 10q15 0 25-10t11-25z m89-286v357q0 15-10 25t-26 11h-160q-15 0-25-11t-11-25v-357q0-15 11-25t25-11h160q15 0 26 11t10 25z m630 83q31-34 31-83-1-44-32-75t-75-32h-155q2-8 5-14t6-12 5-10q10-21 15-32t11-32 6-43q0-14-1-22t-2-25-7-28-14-25-22-23-33-14-46-6q-15 0-25 11-12 11-19 27t-11 29-7 35q-5 23-8 33t-10 27-17 27q-18 19-56 67-28 36-57 68t-42 33q-14 1-24 11t-10 24v358q0 15 11 25t25 11q19 0 88 24 43 15 67 22t68 17 80 8h72q74-1 110-43 32-39 27-101 22-21 31-53 9-34 0-65 25-34 24-77 0-17-9-42z" horiz-adv-x="928.6" />

<glyph glyph-name="instagram" unicode="&#xf16d;" d="M571 350q0 59-41 101t-101 42-101-42-42-101 42-101 101-42 101 42 41 101z m77 0q0-91-64-156t-155-64-156 64-64 156 64 156 156 64 155-64 64-156z m61 229q0-21-15-36t-37-15-36 15-15 36 15 36 36 15 37-15 15-36z m-280 123q-4 0-43 0t-59 0-54-2-57-5-40-11q-28-11-49-32t-33-49q-6-16-10-40t-6-58-1-53 0-59 0-43 0-43 0-59 1-53 6-58 10-40q12-28 33-49t49-32q16-6 40-11t57-5 54-2 59 0 43 0 42 0 59 0 54 2 58 5 39 11q28 11 50 32t32 49q6 16 10 40t6 58 1 53 0 59 0 43 0 43 0 59-1 53-6 58-10 40q-11 28-32 49t-50 32q-16 6-39 11t-58 5-54 2-59 0-42 0z m428-352q0-128-3-177-5-116-69-180t-179-69q-50-3-177-3t-177 3q-116 6-180 69t-69 180q-3 49-3 177t3 177q5 116 69 180t180 69q49 3 177 3t177-3q116-6 179-69t69-180q3-49 3-177z" horiz-adv-x="857.1" />

<glyph glyph-name="dot-circled" unicode="&#xf192;" d="M571 350q0-59-41-101t-101-42-101 42-42 101 42 101 101 42 101-42 41-101z m-142 304q-83 0-153-41t-110-111-41-152 41-152 110-111 153-41 152 41 110 111 41 152-41 152-110 111-152 41z m428-304q0-117-57-215t-156-156-215-58-216 58-155 156-58 215 58 215 155 156 216 58 215-58 156-156 57-215z" horiz-adv-x="857.1" />

<glyph glyph-name="file-excel" unicode="&#xf1c3;" d="M819 638q16-16 27-42t11-50v-642q0-23-15-38t-38-16h-750q-23 0-38 16t-16 38v892q0 23 16 38t38 16h500q22 0 49-11t42-27z m-248 136v-210h210q-5 17-12 23l-175 175q-6 7-23 12z m215-853v572h-232q-23 0-38 16t-16 37v233h-429v-858h715z m-547 131v-59h157v59h-42l58 90q3 4 5 9t5 8 2 2h1q0-2 3-6 1-2 2-4t3-4 4-5l60-90h-43v-59h163v59h-38l-107 152 108 158h38v59h-156v-59h41l-57-89q-2-4-6-9t-5-8l-1-1h-1q0 2-3 5-3 6-9 13l-59 89h42v59h-162v-59h38l106-152-109-158h-38z" horiz-adv-x="857.1" />

<glyph glyph-name="life-ring" unicode="&#xf1cd;" d="M500 850q102 0 194-40t160-106 106-160 40-194-40-194-106-160-160-106-194-40-194 40-160 106-106 160-40 194 40 194 106 160 160 106 194 40z m0-71q-106 0-201-51l108-108q46 16 93 16t93-16l109 108q-96 51-202 51z m-378-630l108 108q-16 46-16 93t16 93l-108 109q-51-96-51-202t51-201z m378-228q106 0 202 51l-109 108q-46-16-93-16t-93 16l-108-108q95-51 201-51z m0 215q89 0 152 63t62 151-62 152-152 62-151-62-63-152 63-151 151-63z m270 121l108-108q51 95 51 201t-51 202l-108-109q16-46 16-93t-16-93z" horiz-adv-x="1000" />

<glyph glyph-name="calc" unicode="&#xf1ec;" d="M214-7q0 29-21 50t-50 21-51-21-21-50 21-51 51-21 50 21 21 51z m215 0q0 29-21 50t-51 21-50-21-21-50 21-51 50-21 51 21 21 51z m-215 214q0 30-21 51t-50 21-51-21-21-51 21-50 51-21 50 21 21 50z m429-214q0 29-21 50t-51 21-50-21-21-50 21-51 50-21 51 21 21 51z m-214 214q0 30-21 51t-51 21-50-21-21-51 21-50 50-21 51 21 21 50z m-215 214q0 30-21 51t-50 21-51-21-21-51 21-50 51-21 50 21 21 50z m429-214q0 30-21 51t-51 21-50-21-21-51 21-50 50-21 51 21 21 50z m-214 214q0 30-21 51t-51 21-50-21-21-51 21-50 50-21 51 21 21 50z m428-428v214q0 29-21 50t-50 22-50-22-22-50v-214q0-29 22-50t50-22 50 22 21 50z m-214 428q0 30-21 51t-51 21-50-21-21-51 21-50 50-21 51 21 21 50z m214 179v143q0 14-10 25t-26 11h-714q-14 0-25-11t-11-25v-143q0-14 11-25t25-11h714q15 0 26 11t10 25z m0-179q0 30-21 51t-50 21-51-21-21-51 21-50 51-21 50 21 21 50z m72 358v-858q0-29-22-50t-50-21h-786q-29 0-50 21t-21 50v858q0 29 21 50t50 21h786q29 0 50-21t22-50z" horiz-adv-x="1000" />

<glyph glyph-name="eyedropper" unicode="&#xf1fb;" d="M948 798q52-53 52-127t-52-126l-126-124 58-58q6-6 6-13t-6-13l-117-117q-6-6-13-6t-13 6l-58 59-337-337q-21-21-50-21h-113l-143-71-36 36 71 143v113q0 29 21 50l337 337-59 58q-6 6-6 13t6 13l117 117q6 6 13 6t13-6l58-58 124 126q52 52 126 52t127-52z m-662-769l321 321-107 107-321-321v-107h107z" horiz-adv-x="1000" />

<glyph glyph-name="user-secret" unicode="&#xf21b;" d="M321-7l54 250-54 71-71 36z m143 0l72 357-72-36-53-71z m90 564q-1 2-3 3-5 4-53 4-39 0-93-10-4-1-12-1t-12 1q-54 10-93 10-48 0-54-4-1-1-2-3 1-11 2-16 2-1 5-3t4-6q1-2 4-11t4-12 4-9 5-10 5-8 7-7 7-6 10-4 12-2 13-1q20 0 33 7t18 16 8 20 7 16 10 7h6q6 0 10-7t6-16 9-20 18-16 33-7q7 0 13 1t12 2 9 4 8 6 7 7 5 8 5 10 4 9 4 12 4 11q1 4 4 6t4 3q2 5 3 16z m232-491q0-68-41-106t-108-39h-488q-67 0-108 39t-41 106q0 34 3 66t10 70 21 69 36 58 52 41l-51 123h120q-12 36-12 71 0 7 1 18-109 23-109 54 0 32 118 55 9 35 28 75t40 63q18 21 42 21 17 0 47-17t47-18 47 18 47 17q24 0 42-21 20-23 39-63t29-75q117-23 117-55 0-31-108-54 4-45-11-89h119l-45-126q35-18 60-54t36-80 16-84 5-83z" horiz-adv-x="857.1" />

<glyph glyph-name="envelope-open-o" unicode="&#xf2b7;" d="M823 341l21-29q5-6 4-13t-6-11q-24-19-71-55t-82-63-37-29q-22-18-34-27t-33-23-43-20-41-7h-2q-20 0-41 7t-42 20-34 23-34 27q-3 2-36 28t-80 62-68 53q-7 4-7 11t3 13l21 29q4 6 12 7t14-3q52-41 170-132 3-2 25-20t33-26 32-18 32-9h2q13 0 32 9t32 18 34 26 24 20q144 110 174 135 7 4 14 4t12-7z m106-402v518q-51 47-89 78-51 41-217 169-2 2-24 20t-34 27-31 18-33 10h-2q-13 0-32-10t-32-18-34-27-24-20q-120-92-176-137t-72-58-46-41q-8-7-12-11v-518q0-7 6-12t12-6h822q7 0 12 6t6 12z m71 518v-518q0-37-26-63t-63-26h-822q-36 0-63 26t-26 63v518q0 31 23 53 69 63 195 162t130 101q20 17 33 27t35 23 42 20 41 7h2q20 0 41-7t43-20 34-23 33-27q24-20 87-68t126-99 112-96q23-22 23-53z" horiz-adv-x="1000" />

<glyph glyph-name="id-card-o" unicode="&#xf2c3;" d="M500 174q0-31-18-52t-42-22h-237q-25 0-43 22t-17 52q0 30 4 56t14 50 28 38 45 14q36-36 87-36t88 36q26 0 45-14t28-38 14-50 4-56z m-71 247q0-44-32-75t-76-32-75 32-32 75 32 76 75 32 76-32 32-76z m571-232v-35q0-8-5-13t-13-5h-393q-7 0-12 5t-6 13v35q0 8 6 13t12 5h393q8 0 13-5t5-13z m-214 143v-36q0-7-5-12t-13-5h-179q-7 0-12 5t-6 12v36q0 8 6 13t12 5h179q8 0 13-5t5-13z m214 0v-36q0-7-5-12t-13-5h-107q-8 0-13 5t-5 12v36q0 8 5 13t13 5h107q8 0 13-5t5-13z m0 143v-36q0-7-5-12t-13-6h-393q-7 0-12 6t-6 12v36q0 8 6 13t12 5h393q8 0 13-5t5-13z m71-464v625h-1000v-625q0-7 6-13t12-5h965q7 0 12 5t5 13z m72 678v-678q0-37-26-63t-63-27h-965q-36 0-63 27t-26 63v678q0 37 26 63t63 27h965q36 0 63-27t26-63z" horiz-adv-x="1142.9" />
</font>
</defs>
</svg>